% time	cellId	IMSI	frame	sframe	RNTI	mcsTb1	sizeTb1	mcsTb2	sizeTb2	ccId
0.021	1	1	3	2	1	0	81	0	0	0
0.021	2	2	3	2	1	0	81	0	0	0
0.022	1	1	3	3	1	0	81	0	0	0
0.022	2	2	3	3	1	0	81	0	0	0
0.023	1	1	3	4	1	0	81	0	0	0
0.023	2	2	3	4	1	0	81	0	0	0
0.024	1	1	3	5	1	0	81	0	0	0
0.024	2	2	3	5	1	0	81	0	0	0
0.025	1	1	3	6	1	0	81	0	0	0
0.025	2	2	3	6	1	0	81	0	0	0
0.026	1	1	3	7	1	28	2196	0	0	0
0.026	2	2	3	7	1	28	2196	0	0	0
0.026	4	4	3	7	2	0	81	0	0	0
0.027	1	1	3	8	1	28	2196	0	0	0
0.027	2	2	3	8	1	28	2196	0	0	0
0.027	4	4	3	8	2	0	81	0	0	0
0.028	1	1	3	9	1	28	2196	0	0	0
0.028	2	2	3	9	1	28	2196	0	0	0
0.028	4	4	3	9	2	0	81	0	0	0
0.029	1	1	3	10	1	28	2196	0	0	0
0.029	2	2	3	10	1	28	2196	0	0	0
0.029	4	4	3	10	2	0	81	0	0	0
0.03	1	1	4	1	1	18	967	0	0	0
0.03	2	2	4	1	1	18	967	0	0	0
0.03	4	4	4	1	2	0	81	0	0	0
0.031	1	1	4	2	1	18	967	0	0	0
0.031	2	2	4	2	1	18	967	0	0	0
0.031	4	4	4	2	2	28	2196	0	0	0
0.032	1	1	4	3	1	18	967	0	0	0
0.032	2	2	4	3	1	18	967	0	0	0
0.032	4	4	4	3	2	28	2196	0	0	0
0.033	1	1	4	4	1	28	2196	0	0	0
0.033	2	2	4	4	1	28	2196	0	0	0
0.033	4	4	4	4	2	28	2196	0	0	0
0.034	1	1	4	5	1	28	2196	0	0	0
0.034	2	2	4	5	1	28	2196	0	0	0
0.035	1	1	4	6	1	28	2196	0	0	0
0.035	2	2	4	6	1	28	2196	0	0	0
0.036	1	1	4	7	1	28	2196	0	0	0
0.036	2	2	4	7	1	28	2196	0	0	0
0.037	1	1	4	8	1	18	967	0	0	0
0.037	2	2	4	8	1	18	967	0	0	0
0.038	1	1	4	9	1	18	967	0	0	0
0.038	2	2	4	9	1	18	967	0	0	0
0.039	1	1	4	10	1	18	967	0	0	0
0.039	2	2	4	10	1	18	967	0	0	0
0.04	1	1	5	1	1	28	2196	0	0	0
0.04	2	2	5	1	1	28	2196	0	0	0
0.041	1	1	5	2	1	28	2196	0	0	0
0.041	2	2	5	2	1	14	775	0	0	0
0.042	1	1	5	3	1	28	2196	0	0	0
0.042	2	2	5	3	1	18	967	0	0	0
0.043	1	1	5	4	1	28	2196	0	0	0
0.043	2	2	5	4	1	18	967	0	0	0
0.043	4	4	5	4	2	28	2196	0	0	0
0.044	1	1	5	5	1	18	967	0	0	0
0.044	2	2	5	5	1	18	967	0	0	0
0.044	4	4	5	5	2	28	2196	0	0	0
0.045	1	1	5	6	1	18	967	0	0	0
0.045	2	2	5	6	1	18	967	0	0	0
0.045	4	4	5	6	2	28	2196	0	0	0
0.046	1	1	5	7	1	18	967	0	0	0
0.046	2	2	5	7	1	18	967	0	0	0
0.046	4	4	5	7	2	28	2196	0	0	0
0.047	1	1	5	8	1	18	967	0	0	0
0.047	2	2	5	8	1	18	967	0	0	0
0.047	4	4	5	8	2	28	2196	0	0	0
0.048	1	1	5	9	1	18	967	0	0	0
0.048	2	2	5	9	1	18	967	0	0	0
0.048	4	4	5	9	2	28	2196	0	0	0
0.049	1	1	5	10	1	18	967	0	0	0
0.049	2	2	5	10	1	18	967	0	0	0
0.049	4	4	5	10	2	28	2196	0	0	0
0.05	1	1	6	1	1	18	967	0	0	0
0.05	2	2	6	1	1	18	967	0	0	0
0.05	4	4	6	1	2	28	2196	0	0	0
0.051	1	1	6	2	1	18	967	0	0	0
0.051	2	2	6	2	1	18	967	0	0	0
0.052	1	1	6	3	1	18	967	0	0	0
0.052	2	2	6	3	1	18	967	0	0	0
0.053	1	1	6	4	1	18	967	0	0	0
0.053	2	2	6	4	1	18	967	0	0	0
0.054	1	1	6	5	1	18	967	0	0	0
0.054	2	2	6	5	1	18	967	0	0	0
0.055	1	1	6	6	1	18	967	0	0	0
0.055	2	2	6	6	1	18	967	0	0	0
0.056	1	1	6	7	1	18	967	0	0	0
0.056	2	2	6	7	1	18	967	0	0	0
0.057	1	1	6	8	1	18	967	0	0	0
0.057	2	2	6	8	1	14	775	0	0	0
0.057	4	4	6	8	2	28	2196	0	0	0
0.058	1	1	6	9	1	12	597	0	0	0
0.058	2	2	6	9	1	14	775	0	0	0
0.059	1	1	6	10	1	12	597	0	0	0
0.059	2	2	6	10	1	14	775	0	0	0
0.059	4	4	6	10	2	28	2196	0	0	0
0.06	1	1	7	1	1	18	967	0	0	0
0.06	2	2	7	1	1	18	967	0	0	0
0.06	4	4	7	1	2	28	2196	0	0	0
0.061	1	1	7	2	1	18	967	0	0	0
0.061	2	2	7	2	1	18	967	0	0	0
0.061	4	4	7	2	2	28	2196	0	0	0
0.062	1	1	7	3	1	18	967	0	0	0
0.062	2	2	7	3	1	18	967	0	0	0
0.062	4	4	7	3	2	28	2196	0	0	0
0.063	1	1	7	4	1	18	967	0	0	0
0.063	2	2	7	4	1	18	967	0	0	0
0.063	4	4	7	4	2	28	2196	0	0	0
0.064	1	1	7	5	1	18	967	0	0	0
0.064	2	2	7	5	1	18	967	0	0	0
0.064	4	4	7	5	2	28	2196	0	0	0
0.065	1	1	7	6	1	18	967	0	0	0
0.065	2	2	7	6	1	18	967	0	0	0
0.066	1	1	7	7	1	18	967	0	0	0
0.066	2	2	7	7	1	18	967	0	0	0
0.067	1	1	7	8	1	18	967	0	0	0
0.067	2	2	7	8	1	18	967	0	0	0
0.068	1	1	7	9	1	18	967	0	0	0
0.068	2	2	7	9	1	18	967	0	0	0
0.069	1	1	7	10	1	18	967	0	0	0
0.069	2	2	7	10	1	18	967	0	0	0
0.07	1	1	8	1	1	18	967	0	0	0
0.07	2	2	8	1	1	18	967	0	0	0
0.071	1	1	8	2	1	18	967	0	0	0
0.071	2	2	8	2	1	18	967	0	0	0
0.072	1	1	8	3	1	12	597	0	0	0
0.072	2	2	8	3	1	14	775	0	0	0
0.073	1	1	8	4	1	12	597	0	0	0
0.073	2	2	8	4	1	14	775	0	0	0
0.073	4	4	8	4	2	28	2196	0	0	0
0.074	1	1	8	5	1	18	967	0	0	0
0.074	2	2	8	5	1	18	967	0	0	0
0.074	4	4	8	5	2	28	2196	0	0	0
0.075	1	1	8	6	1	18	967	0	0	0
0.075	2	2	8	6	1	18	967	0	0	0
0.075	4	4	8	6	2	28	2196	0	0	0
0.076	1	1	8	7	1	18	967	0	0	0
0.076	2	2	8	7	1	18	967	0	0	0
0.076	4	4	8	7	2	28	2196	0	0	0
0.077	1	1	8	8	1	18	967	0	0	0
0.077	2	2	8	8	1	18	967	0	0	0
0.077	4	4	8	8	2	28	2196	0	0	0
0.078	1	1	8	9	1	18	967	0	0	0
0.078	2	2	8	9	1	18	967	0	0	0
0.078	4	4	8	9	2	28	2196	0	0	0
0.079	1	1	8	10	1	18	967	0	0	0
0.079	2	2	8	10	1	18	967	0	0	0
0.079	4	4	8	10	2	28	2196	0	0	0
0.08	1	1	9	1	1	18	967	0	0	0
0.08	2	2	9	1	1	18	967	0	0	0
0.08	4	4	9	1	2	28	2196	0	0	0
0.081	1	1	9	2	1	18	967	0	0	0
0.081	2	2	9	2	1	18	967	0	0	0
0.082	1	1	9	3	1	18	967	0	0	0
0.082	2	2	9	3	1	18	967	0	0	0
0.083	1	1	9	4	1	18	967	0	0	0
0.083	2	2	9	4	1	18	967	0	0	0
0.084	1	1	9	5	1	18	967	0	0	0
0.084	2	2	9	5	1	18	967	0	0	0
0.085	1	1	9	6	1	18	967	0	0	0
0.085	2	2	9	6	1	18	967	0	0	0
0.086	1	1	9	7	1	18	967	0	0	0
0.086	2	2	9	7	1	18	967	0	0	0
0.087	1	1	9	8	1	18	967	0	0	0
0.087	2	2	9	8	1	18	967	0	0	0
0.088	1	1	9	9	1	12	597	0	0	0
0.088	2	2	9	9	1	14	775	0	0	0
0.089	1	1	9	10	1	12	597	0	0	0
0.089	2	2	9	10	1	14	775	0	0	0
0.089	4	4	9	10	2	28	2196	0	0	0
0.09	1	1	10	1	1	18	967	0	0	0
0.09	2	2	10	1	1	18	967	0	0	0
0.09	4	4	10	1	2	28	2196	0	0	0
0.091	1	1	10	2	1	18	967	0	0	0
0.091	2	2	10	2	1	18	967	0	0	0
0.091	4	4	10	2	2	28	2196	0	0	0
0.092	1	1	10	3	1	18	967	0	0	0
0.092	2	2	10	3	1	18	967	0	0	0
0.092	4	4	10	3	2	28	2196	0	0	0
0.093	1	1	10	4	1	18	967	0	0	0
0.093	2	2	10	4	1	18	967	0	0	0
0.093	4	4	10	4	2	28	2196	0	0	0
0.094	1	1	10	5	1	18	967	0	0	0
0.094	2	2	10	5	1	18	967	0	0	0
0.094	4	4	10	5	2	28	2196	0	0	0
0.095	1	1	10	6	1	18	967	0	0	0
0.095	2	2	10	6	1	18	967	0	0	0
0.095	4	4	10	6	2	28	2196	0	0	0
0.096	1	1	10	7	1	18	967	0	0	0
0.096	2	2	10	7	1	18	967	0	0	0
0.096	4	4	10	7	2	28	2196	0	0	0
0.097	1	1	10	8	1	18	967	0	0	0
0.097	2	2	10	8	1	18	967	0	0	0
0.098	1	1	10	9	1	18	967	0	0	0
0.098	2	2	10	9	1	18	967	0	0	0
0.099	1	1	10	10	1	18	967	0	0	0
0.099	2	2	10	10	1	18	967	0	0	0
0.1	1	1	11	1	1	18	967	0	0	0
0.1	2	2	11	1	1	18	967	0	0	0
0.101	1	1	11	2	1	18	967	0	0	0
0.101	2	2	11	2	1	18	967	0	0	0
0.102	1	1	11	3	1	18	967	0	0	0
0.102	2	2	11	3	1	18	967	0	0	0
0.103	1	1	11	4	1	18	967	0	0	0
0.103	2	2	11	4	1	18	967	0	0	0
0.104	1	1	11	5	1	12	597	0	0	0
0.104	2	2	11	5	1	14	775	0	0	0
0.105	1	1	11	6	1	12	597	0	0	0
0.105	2	2	11	6	1	14	775	0	0	0
0.105	4	4	11	6	2	28	2196	0	0	0
0.106	1	1	11	7	1	18	967	0	0	0
0.106	2	2	11	7	1	18	967	0	0	0
0.106	4	4	11	7	2	28	2196	0	0	0
0.107	1	1	11	8	1	18	967	0	0	0
0.107	2	2	11	8	1	18	967	0	0	0
0.107	4	4	11	8	2	28	2196	0	0	0
0.108	1	1	11	9	1	18	967	0	0	0
0.108	2	2	11	9	1	18	967	0	0	0
0.108	4	4	11	9	2	28	2196	0	0	0
0.109	1	1	11	10	1	18	967	0	0	0
0.109	2	2	11	10	1	18	967	0	0	0
0.109	4	4	11	10	2	28	2196	0	0	0
0.11	1	1	12	1	1	18	967	0	0	0
0.11	2	2	12	1	1	18	967	0	0	0
0.11	4	4	12	1	2	28	2196	0	0	0
0.111	1	1	12	2	1	18	967	0	0	0
0.111	2	2	12	2	1	18	967	0	0	0
0.111	4	4	12	2	2	28	2196	0	0	0
0.112	1	1	12	3	1	18	967	0	0	0
0.112	2	2	12	3	1	18	967	0	0	0
0.112	4	4	12	3	2	28	2196	0	0	0
0.113	1	1	12	4	1	18	967	0	0	0
0.113	2	2	12	4	1	18	967	0	0	0
0.114	1	1	12	5	1	18	967	0	0	0
0.114	2	2	12	5	1	18	967	0	0	0
0.115	1	1	12	6	1	18	967	0	0	0
0.115	2	2	12	6	1	18	967	0	0	0
0.116	1	1	12	7	1	18	967	0	0	0
0.116	2	2	12	7	1	18	967	0	0	0
0.117	1	1	12	8	1	18	967	0	0	0
0.117	2	2	12	8	1	18	967	0	0	0
0.118	1	1	12	9	1	18	967	0	0	0
0.118	2	2	12	9	1	18	967	0	0	0
0.119	1	1	12	10	1	18	967	0	0	0
0.119	2	2	12	10	1	18	967	0	0	0
0.12	1	1	13	1	1	12	597	0	0	0
0.12	2	2	13	1	1	14	775	0	0	0
0.121	1	1	13	2	1	12	597	0	0	0
0.121	2	2	13	2	1	14	775	0	0	0
0.121	4	4	13	2	2	28	2196	0	0	0
0.122	1	1	13	3	1	18	967	0	0	0
0.122	2	2	13	3	1	18	967	0	0	0
0.122	4	4	13	3	2	28	2196	0	0	0
0.123	1	1	13	4	1	18	967	0	0	0
0.123	2	2	13	4	1	18	967	0	0	0
0.123	4	4	13	4	2	28	2196	0	0	0
0.124	1	1	13	5	1	18	967	0	0	0
0.124	2	2	13	5	1	18	967	0	0	0
0.124	4	4	13	5	2	28	2196	0	0	0
0.125	1	1	13	6	1	18	967	0	0	0
0.125	2	2	13	6	1	18	967	0	0	0
0.125	4	4	13	6	2	28	2196	0	0	0
0.126	1	1	13	7	1	18	967	0	0	0
0.126	2	2	13	7	1	18	967	0	0	0
0.126	4	4	13	7	2	28	2196	0	0	0
0.127	1	1	13	8	1	18	967	0	0	0
0.127	2	2	13	8	1	18	967	0	0	0
0.127	4	4	13	8	2	28	2196	0	0	0
0.128	1	1	13	9	1	18	967	0	0	0
0.128	2	2	13	9	1	18	967	0	0	0
0.128	4	4	13	9	2	28	2196	0	0	0
0.129	1	1	13	10	1	18	967	0	0	0
0.129	2	2	13	10	1	18	967	0	0	0
0.13	1	1	14	1	1	18	967	0	0	0
0.13	2	2	14	1	1	18	967	0	0	0
0.131	1	1	14	2	1	18	967	0	0	0
0.131	2	2	14	2	1	18	967	0	0	0
0.132	1	1	14	3	1	18	967	0	0	0
0.132	2	2	14	3	1	18	967	0	0	0
0.133	1	1	14	4	1	18	967	0	0	0
0.133	2	2	14	4	1	18	967	0	0	0
0.134	1	1	14	5	1	18	967	0	0	0
0.134	2	2	14	5	1	18	967	0	0	0
0.135	1	1	14	6	1	18	967	0	0	0
0.135	2	2	14	6	1	18	967	0	0	0
0.136	1	1	14	7	1	12	597	0	0	0
0.136	2	2	14	7	1	14	775	0	0	0
0.137	1	1	14	8	1	12	597	0	0	0
0.137	2	2	14	8	1	14	775	0	0	0
0.137	4	4	14	8	2	28	2196	0	0	0
0.138	1	1	14	9	1	18	967	0	0	0
0.138	2	2	14	9	1	18	967	0	0	0
0.138	4	4	14	9	2	28	2196	0	0	0
0.139	1	1	14	10	1	18	967	0	0	0
0.139	2	2	14	10	1	18	967	0	0	0
0.139	4	4	14	10	2	28	2196	0	0	0
0.14	1	1	15	1	1	18	967	0	0	0
0.14	2	2	15	1	1	18	967	0	0	0
0.14	4	4	15	1	2	28	2196	0	0	0
0.141	1	1	15	2	1	18	967	0	0	0
0.141	2	2	15	2	1	18	967	0	0	0
0.141	4	4	15	2	2	28	2196	0	0	0
0.142	1	1	15	3	1	18	967	0	0	0
0.142	2	2	15	3	1	18	967	0	0	0
0.142	4	4	15	3	2	28	2196	0	0	0
0.143	1	1	15	4	1	18	967	0	0	0
0.143	2	2	15	4	1	18	967	0	0	0
0.143	4	4	15	4	2	28	2196	0	0	0
0.144	1	1	15	5	1	18	967	0	0	0
0.144	2	2	15	5	1	18	967	0	0	0
0.144	4	4	15	5	2	28	2196	0	0	0
0.145	1	1	15	6	1	18	967	0	0	0
0.145	2	2	15	6	1	18	967	0	0	0
0.146	1	1	15	7	1	18	967	0	0	0
0.146	2	2	15	7	1	18	967	0	0	0
0.146	4	4	15	7	2	28	2196	0	0	0
0.147	1	1	15	8	1	18	967	0	0	0
0.147	2	2	15	8	1	18	967	0	0	0
0.148	1	1	15	9	1	18	967	0	0	0
0.148	2	2	15	9	1	18	967	0	0	0
0.149	1	1	15	10	1	18	967	0	0	0
0.149	2	2	15	10	1	18	967	0	0	0
0.15	1	1	16	1	1	18	967	0	0	0
0.15	2	2	16	1	1	18	967	0	0	0
0.151	1	1	16	2	1	18	967	0	0	0
0.151	2	2	16	2	1	18	967	0	0	0
0.152	1	1	16	3	1	12	597	0	0	0
0.152	2	2	16	3	1	14	775	0	0	0
0.153	1	1	16	4	1	12	597	0	0	0
0.153	2	2	16	4	1	14	775	0	0	0
0.153	4	4	16	4	2	28	2196	0	0	0
0.154	1	1	16	5	1	12	597	0	0	0
0.154	2	2	16	5	1	14	775	0	0	0
0.154	4	4	16	5	2	28	2196	0	0	0
0.155	1	1	16	6	1	12	597	0	0	0
0.155	2	2	16	6	1	14	775	0	0	0
0.155	4	4	16	6	2	28	2196	0	0	0
0.156	1	1	16	7	1	18	967	0	0	0
0.156	2	2	16	7	1	18	967	0	0	0
0.156	4	4	16	7	2	28	2196	0	0	0
0.157	1	1	16	8	1	18	967	0	0	0
0.157	2	2	16	8	1	18	967	0	0	0
0.157	4	4	16	8	2	28	2196	0	0	0
0.158	1	1	16	9	1	18	967	0	0	0
0.158	2	2	16	9	1	18	967	0	0	0
0.158	4	4	16	9	2	28	2196	0	0	0
0.159	1	1	16	10	1	18	967	0	0	0
0.159	2	2	16	10	1	18	967	0	0	0
0.159	4	4	16	10	2	28	2196	0	0	0
0.16	1	1	17	1	1	18	967	0	0	0
0.16	2	2	17	1	1	18	967	0	0	0
0.16	4	4	17	1	2	28	2196	0	0	0
0.161	1	1	17	2	1	18	967	0	0	0
0.161	2	2	17	2	1	18	967	0	0	0
0.162	1	1	17	3	1	12	597	0	0	0
0.162	2	2	17	3	1	14	775	0	0	0
0.163	1	1	17	4	1	18	967	0	0	0
0.163	2	2	17	4	1	18	967	0	0	0
0.164	1	1	17	5	1	18	967	0	0	0
0.164	2	2	17	5	1	18	967	0	0	0
0.165	1	1	17	6	1	18	967	0	0	0
0.165	2	2	17	6	1	18	967	0	0	0
0.166	1	1	17	7	1	18	967	0	0	0
0.166	2	2	17	7	1	18	967	0	0	0
0.167	1	1	17	8	1	18	967	0	0	0
0.167	2	2	17	8	1	18	967	0	0	0
0.168	1	1	17	9	1	12	597	0	0	0
0.168	2	2	17	9	1	14	775	0	0	0
0.169	1	1	17	10	1	12	597	0	0	0
0.169	2	2	17	10	1	14	775	0	0	0
0.169	4	4	17	10	2	28	2196	0	0	0
0.17	1	1	18	1	1	18	967	0	0	0
0.17	2	2	18	1	1	18	967	0	0	0
0.17	4	4	18	1	2	28	2196	0	0	0
0.171	1	1	18	2	1	18	967	0	0	0
0.171	2	2	18	2	1	18	967	0	0	0
0.171	4	4	18	2	2	28	2196	0	0	0
0.172	1	1	18	3	1	18	967	0	0	0
0.172	2	2	18	3	1	18	967	0	0	0
0.172	4	4	18	3	2	28	2196	0	0	0
0.173	1	1	18	4	1	18	967	0	0	0
0.173	2	2	18	4	1	18	967	0	0	0
0.173	4	4	18	4	2	28	2196	0	0	0
0.174	1	1	18	5	1	18	967	0	0	0
0.174	2	2	18	5	1	18	967	0	0	0
0.174	4	4	18	5	2	28	2196	0	0	0
0.175	1	1	18	6	1	18	967	0	0	0
0.175	2	2	18	6	1	18	967	0	0	0
0.175	4	4	18	6	2	28	2196	0	0	0
0.176	1	1	18	7	1	18	967	0	0	0
0.176	2	2	18	7	1	18	967	0	0	0
0.176	4	4	18	7	2	28	2196	0	0	0
0.177	1	1	18	8	1	18	967	0	0	0
0.177	2	2	18	8	1	18	967	0	0	0
0.178	1	1	18	9	1	18	967	0	0	0
0.178	2	2	18	9	1	18	967	0	0	0
0.179	1	1	18	10	1	18	967	0	0	0
0.179	2	2	18	10	1	18	967	0	0	0
0.179	4	4	18	10	2	28	2196	0	0	0
0.18	1	1	19	1	1	18	967	0	0	0
0.18	2	2	19	1	1	18	967	0	0	0
0.181	1	1	19	2	1	18	967	0	0	0
0.181	2	2	19	2	1	18	967	0	0	0
0.182	1	1	19	3	1	18	967	0	0	0
0.182	2	2	19	3	1	18	967	0	0	0
0.183	1	1	19	4	1	18	967	0	0	0
0.183	2	2	19	4	1	18	967	0	0	0
0.184	1	1	19	5	1	12	597	0	0	0
0.184	2	2	19	5	1	14	775	0	0	0
0.185	1	1	19	6	1	12	597	0	0	0
0.185	2	2	19	6	1	14	775	0	0	0
0.185	4	4	19	6	2	28	2196	0	0	0
0.186	1	1	19	7	1	18	967	0	0	0
0.186	2	2	19	7	1	18	967	0	0	0
0.186	4	4	19	7	2	28	2196	0	0	0
0.187	1	1	19	8	1	18	967	0	0	0
0.187	2	2	19	8	1	18	967	0	0	0
0.188	1	1	19	9	1	18	967	0	0	0
0.188	2	2	19	9	1	18	967	0	0	0
0.189	1	1	19	10	1	18	967	0	0	0
0.189	2	2	19	10	1	18	967	0	0	0
0.189	4	4	19	10	2	28	2196	0	0	0
0.19	1	1	20	1	1	18	967	0	0	0
0.19	2	2	20	1	1	18	967	0	0	0
0.19	4	4	20	1	2	28	2196	0	0	0
0.191	1	1	20	2	1	18	967	0	0	0
0.191	2	2	20	2	1	18	967	0	0	0
0.191	4	4	20	2	2	28	2196	0	0	0
0.192	1	1	20	3	1	18	967	0	0	0
0.192	2	2	20	3	1	18	967	0	0	0
0.192	4	4	20	3	2	28	2196	0	0	0
0.193	1	1	20	4	1	18	967	0	0	0
0.193	2	2	20	4	1	18	967	0	0	0
0.194	1	1	20	5	1	12	597	0	0	0
0.194	2	2	20	5	1	14	775	0	0	0
0.195	1	1	20	6	1	12	597	0	0	0
0.195	2	2	20	6	1	14	775	0	0	0
0.195	4	4	20	6	2	28	2196	0	0	0
0.196	1	1	20	7	1	18	967	0	0	0
0.196	2	2	20	7	1	18	967	0	0	0
0.196	4	4	20	7	2	28	2196	0	0	0
0.197	1	1	20	8	1	18	967	0	0	0
0.197	2	2	20	8	1	18	967	0	0	0
0.198	1	1	20	9	1	18	967	0	0	0
0.198	2	2	20	9	1	18	967	0	0	0
0.199	1	1	20	10	1	18	967	0	0	0
0.199	2	2	20	10	1	18	967	0	0	0
0.2	1	1	21	1	1	12	597	0	0	0
0.2	2	2	21	1	1	14	775	0	0	0
0.201	1	1	21	2	1	12	597	0	0	0
0.201	2	2	21	2	1	14	775	0	0	0
0.201	4	4	21	2	2	28	2196	0	0	0
0.202	1	1	21	3	1	18	967	0	0	0
0.202	2	2	21	3	1	18	967	0	0	0
0.202	4	4	21	3	2	28	2196	0	0	0
0.203	1	1	21	4	1	18	967	0	0	0
0.203	2	2	21	4	1	18	967	0	0	0
0.204	1	1	21	5	1	12	597	0	0	0
0.204	2	2	21	5	1	14	775	0	0	0
0.205	1	1	21	6	1	12	597	0	0	0
0.205	2	2	21	6	1	14	775	0	0	0
0.205	4	4	21	6	2	28	2196	0	0	0
0.206	1	1	21	7	1	18	967	0	0	0
0.206	2	2	21	7	1	18	967	0	0	0
0.206	4	4	21	7	2	28	2196	0	0	0
0.207	1	1	21	8	1	18	967	0	0	0
0.207	2	2	21	8	1	18	967	0	0	0
0.207	4	4	21	8	2	28	2196	0	0	0
0.208	1	1	21	9	1	18	967	0	0	0
0.208	2	2	21	9	1	18	967	0	0	0
0.208	4	4	21	9	2	28	2196	0	0	0
0.209	1	1	21	10	1	18	967	0	0	0
0.209	2	2	21	10	1	18	967	0	0	0
0.209	4	4	21	10	2	28	2196	0	0	0
0.21	1	1	22	1	1	12	597	0	0	0
0.21	2	2	22	1	1	14	775	0	0	0
0.211	1	1	22	2	1	12	597	0	0	0
0.211	2	2	22	2	1	14	775	0	0	0
0.211	4	4	22	2	2	28	2196	0	0	0
0.212	1	1	22	3	1	18	967	0	0	0
0.212	2	2	22	3	1	18	967	0	0	0
0.212	4	4	22	3	2	28	2196	0	0	0
0.213	1	1	22	4	1	18	967	0	0	0
0.213	2	2	22	4	1	18	967	0	0	0
0.214	1	1	22	5	1	18	967	0	0	0
0.214	2	2	22	5	1	18	967	0	0	0
0.215	1	1	22	6	1	18	967	0	0	0
0.215	2	2	22	6	1	18	967	0	0	0
0.216	1	1	22	7	1	12	597	0	0	0
0.216	2	2	22	7	1	14	775	0	0	0
0.217	1	1	22	8	1	12	597	0	0	0
0.217	2	2	22	8	1	14	775	0	0	0
0.218	1	1	22	9	1	18	967	0	0	0
0.218	2	2	22	9	1	18	967	0	0	0
0.219	1	1	22	10	1	18	967	0	0	0
0.219	2	2	22	10	1	18	967	0	0	0
0.22	1	1	23	1	1	12	597	0	0	0
0.22	2	2	23	1	1	14	775	0	0	0
0.221	1	1	23	2	1	12	597	0	0	0
0.221	2	2	23	2	1	14	775	0	0	0
0.221	4	4	23	2	2	28	2196	0	0	0
0.222	1	1	23	3	1	18	967	0	0	0
0.222	2	2	23	3	1	18	967	0	0	0
0.222	4	4	23	3	2	28	2196	0	0	0
0.223	1	1	23	4	1	18	967	0	0	0
0.223	2	2	23	4	1	18	967	0	0	0
0.223	4	4	23	4	2	28	2196	0	0	0
0.224	1	1	23	5	1	18	967	0	0	0
0.224	2	2	23	5	1	18	967	0	0	0
0.224	4	4	23	5	2	28	2196	0	0	0
0.225	1	1	23	6	1	18	967	0	0	0
0.225	2	2	23	6	1	18	967	0	0	0
0.225	4	4	23	6	2	28	2196	0	0	0
0.226	1	1	23	7	1	18	967	0	0	0
0.226	2	2	23	7	1	18	967	0	0	0
0.226	4	4	23	7	2	28	2196	0	0	0
0.227	1	1	23	8	1	18	967	0	0	0
0.227	2	2	23	8	1	18	967	0	0	0
0.227	4	4	23	8	2	28	2196	0	0	0
0.228	1	1	23	9	1	18	967	0	0	0
0.228	2	2	23	9	1	18	967	0	0	0
0.228	4	4	23	9	2	28	2196	0	0	0
0.229	1	1	23	10	1	18	967	0	0	0
0.229	2	2	23	10	1	18	967	0	0	0
0.23	1	1	24	1	1	18	967	0	0	0
0.23	2	2	24	1	1	18	967	0	0	0
0.231	1	1	24	2	1	18	967	0	0	0
0.231	2	2	24	2	1	18	967	0	0	0
0.232	1	1	24	3	1	18	967	0	0	0
0.232	2	2	24	3	1	18	967	0	0	0
0.233	1	1	24	4	1	18	967	0	0	0
0.233	2	2	24	4	1	18	967	0	0	0
0.234	1	1	24	5	1	18	967	0	0	0
0.234	2	2	24	5	1	18	967	0	0	0
0.235	1	1	24	6	1	18	967	0	0	0
0.235	2	2	24	6	1	18	967	0	0	0
0.236	1	1	24	7	1	12	597	0	0	0
0.236	2	2	24	7	1	14	775	0	0	0
0.237	1	1	24	8	1	12	597	0	0	0
0.237	2	2	24	8	1	14	775	0	0	0
0.237	4	4	24	8	2	28	2196	0	0	0
0.238	1	1	24	9	1	18	967	0	0	0
0.238	2	2	24	9	1	18	967	0	0	0
0.238	4	4	24	9	2	28	2196	0	0	0
0.239	1	1	24	10	1	18	967	0	0	0
0.239	2	2	24	10	1	18	967	0	0	0
0.239	4	4	24	10	2	28	2196	0	0	0
0.24	1	1	25	1	1	18	967	0	0	0
0.24	2	2	25	1	1	18	967	0	0	0
0.24	4	4	25	1	2	28	2196	0	0	0
0.241	1	1	25	2	1	18	967	0	0	0
0.241	2	2	25	2	1	18	967	0	0	0
0.241	4	4	25	2	2	28	2196	0	0	0
0.242	1	1	25	3	1	18	967	0	0	0
0.242	2	2	25	3	1	18	967	0	0	0
0.242	4	4	25	3	2	28	2196	0	0	0
0.243	1	1	25	4	1	18	967	0	0	0
0.243	2	2	25	4	1	18	967	0	0	0
0.243	4	4	25	4	2	28	2196	0	0	0
0.244	1	1	25	5	1	18	967	0	0	0
0.244	2	2	25	5	1	18	967	0	0	0
0.244	4	4	25	5	2	28	2196	0	0	0
0.245	1	1	25	6	1	18	967	0	0	0
0.245	2	2	25	6	1	18	967	0	0	0
0.246	1	1	25	7	1	18	967	0	0	0
0.246	2	2	25	7	1	18	967	0	0	0
0.247	1	1	25	8	1	18	967	0	0	0
0.247	2	2	25	8	1	18	967	0	0	0
0.247	4	4	25	8	2	28	2196	0	0	0
0.248	1	1	25	9	1	18	967	0	0	0
0.248	2	2	25	9	1	18	967	0	0	0
0.249	1	1	25	10	1	18	967	0	0	0
0.249	2	2	25	10	1	18	967	0	0	0
0.25	1	1	26	1	1	18	967	0	0	0
0.25	2	2	26	1	1	18	967	0	0	0
0.251	1	1	26	2	1	18	967	0	0	0
0.251	2	2	26	2	1	18	967	0	0	0
0.252	1	1	26	3	1	12	597	0	0	0
0.252	2	2	26	3	1	14	775	0	0	0
0.253	1	1	26	4	1	12	597	0	0	0
0.253	2	2	26	4	1	14	775	0	0	0
0.253	4	4	26	4	2	28	2196	0	0	0
0.254	1	1	26	5	1	18	967	0	0	0
0.254	2	2	26	5	1	18	967	0	0	0
0.254	4	4	26	5	2	28	2196	0	0	0
0.255	1	1	26	6	1	18	967	0	0	0
0.255	2	2	26	6	1	18	967	0	0	0
0.256	1	1	26	7	1	18	967	0	0	0
0.256	2	2	26	7	1	18	967	0	0	0
0.257	1	1	26	8	1	18	967	0	0	0
0.257	2	2	26	8	1	18	967	0	0	0
0.257	4	4	26	8	2	28	2196	0	0	0
0.258	1	1	26	9	1	18	967	0	0	0
0.258	2	2	26	9	1	18	967	0	0	0
0.258	4	4	26	9	2	28	2196	0	0	0
0.259	1	1	26	10	1	18	967	0	0	0
0.259	2	2	26	10	1	18	967	0	0	0
0.259	4	4	26	10	2	28	2196	0	0	0
0.26	1	1	27	1	1	18	967	0	0	0
0.26	2	2	27	1	1	18	967	0	0	0
0.26	4	4	27	1	2	28	2196	0	0	0
0.261	1	1	27	2	1	18	967	0	0	0
0.261	2	2	27	2	1	18	967	0	0	0
0.262	1	1	27	3	1	12	597	0	0	0
0.262	2	2	27	3	1	14	775	0	0	0
0.263	1	1	27	4	1	12	597	0	0	0
0.263	2	2	27	4	1	14	775	0	0	0
0.263	4	4	27	4	2	28	2196	0	0	0
0.264	1	1	27	5	1	18	967	0	0	0
0.264	2	2	27	5	1	18	967	0	0	0
0.264	4	4	27	5	2	28	2196	0	0	0
0.265	1	1	27	6	1	18	967	0	0	0
0.265	2	2	27	6	1	18	967	0	0	0
0.266	1	1	27	7	1	18	967	0	0	0
0.266	2	2	27	7	1	18	967	0	0	0
0.267	1	1	27	8	1	18	967	0	0	0
0.267	2	2	27	8	1	18	967	0	0	0
0.268	1	1	27	9	1	12	597	0	0	0
0.268	2	2	27	9	1	14	775	0	0	0
0.269	1	1	27	10	1	12	597	0	0	0
0.269	2	2	27	10	1	14	775	0	0	0
0.269	4	4	27	10	2	28	2196	0	0	0
0.27	1	1	28	1	1	18	967	0	0	0
0.27	2	2	28	1	1	18	967	0	0	0
0.27	4	4	28	1	2	28	2196	0	0	0
0.271	1	1	28	2	1	18	967	0	0	0
0.271	2	2	28	2	1	18	967	0	0	0
0.272	1	1	28	3	1	12	597	0	0	0
0.272	2	2	28	3	1	14	775	0	0	0
0.273	1	1	28	4	1	12	597	0	0	0
0.273	2	2	28	4	1	14	775	0	0	0
0.273	4	4	28	4	2	28	2196	0	0	0
0.274	1	1	28	5	1	18	967	0	0	0
0.274	2	2	28	5	1	18	967	0	0	0
0.274	4	4	28	5	2	28	2196	0	0	0
0.275	1	1	28	6	1	18	967	0	0	0
0.275	2	2	28	6	1	18	967	0	0	0
0.275	4	4	28	6	2	28	2196	0	0	0
0.276	1	1	28	7	1	18	967	0	0	0
0.276	2	2	28	7	1	18	967	0	0	0
0.276	4	4	28	7	2	28	2196	0	0	0
0.277	1	1	28	8	1	18	967	0	0	0
0.277	2	2	28	8	1	18	967	0	0	0
0.278	1	1	28	9	1	12	597	0	0	0
0.278	2	2	28	9	1	14	775	0	0	0
0.279	1	1	28	10	1	12	597	0	0	0
0.279	2	2	28	10	1	14	775	0	0	0
0.279	4	4	28	10	2	28	2196	0	0	0
0.28	1	1	29	1	1	18	967	0	0	0
0.28	2	2	29	1	1	18	967	0	0	0
0.28	4	4	29	1	2	28	2196	0	0	0
0.281	1	1	29	2	1	18	967	0	0	0
0.281	2	2	29	2	1	18	967	0	0	0
0.282	1	1	29	3	1	18	967	0	0	0
0.282	2	2	29	3	1	18	967	0	0	0
0.283	1	1	29	4	1	18	967	0	0	0
0.283	2	2	29	4	1	18	967	0	0	0
0.284	1	1	29	5	1	12	597	0	0	0
0.284	2	2	29	5	1	14	775	0	0	0
0.284	3	3	29	5	5	0	81	0	0	0
0.285	1	1	29	6	1	12	597	0	0	0
0.285	2	2	29	6	1	14	775	0	0	0
0.285	3	3	29	6	5	0	81	0	0	0
0.285	4	4	29	6	2	28	2196	0	0	0
0.286	1	1	29	7	1	18	967	0	0	0
0.286	2	2	29	7	1	18	967	0	0	0
0.286	3	3	29	7	5	0	81	0	0	0
0.286	4	4	29	7	2	28	2196	0	0	0
0.287	1	1	29	8	1	18	967	0	0	0
0.287	2	2	29	8	1	18	967	0	0	0
0.287	3	3	29	8	5	0	81	0	0	0
0.288	1	1	29	9	1	12	597	0	0	0
0.288	2	2	29	9	1	14	775	0	0	0
0.288	3	3	29	9	5	0	81	0	0	0
0.289	1	1	29	10	1	12	597	0	0	0
0.289	2	2	29	10	1	14	775	0	0	0
0.289	3	3	29	10	5	28	2196	0	0	0
0.289	4	4	29	10	2	28	2196	0	0	0
0.29	1	1	30	1	1	18	967	0	0	0
0.29	2	2	30	1	1	18	967	0	0	0
0.29	3	3	30	1	5	28	2196	0	0	0
0.29	4	4	30	1	2	28	2196	0	0	0
0.291	1	1	30	2	1	18	967	0	0	0
0.291	2	2	30	2	1	18	967	0	0	0
0.291	3	3	30	2	5	28	2196	0	0	0
0.291	4	4	30	2	2	28	2196	0	0	0
0.292	1	1	30	3	1	14	775	0	0	0
0.292	2	2	30	3	1	14	775	0	0	0
0.292	4	4	30	3	2	28	2196	0	0	0
0.293	1	1	30	4	1	18	967	0	0	0
0.293	2	2	30	4	1	18	967	0	0	0
0.294	1	1	30	5	1	12	597	0	0	0
0.294	2	2	30	5	1	10	469	0	0	0
0.295	1	1	30	6	1	12	597	0	0	0
0.295	2	2	30	6	1	10	469	0	0	0
0.295	4	4	30	6	2	28	2196	0	0	0
0.296	1	1	30	7	1	14	775	0	0	0
0.296	2	2	30	7	1	14	775	0	0	0
0.296	4	4	30	7	2	28	2196	0	0	0
0.297	1	1	30	8	1	18	967	0	0	0
0.297	2	2	30	8	1	18	967	0	0	0
0.298	1	1	30	9	1	18	967	0	0	0
0.298	2	2	30	9	1	18	967	0	0	0
0.298	4	4	30	9	2	28	2196	0	0	0
0.299	1	1	30	10	1	12	597	0	0	0
0.299	2	2	30	10	1	10	469	0	0	0
0.3	1	1	31	1	1	12	597	0	0	0
0.3	2	2	31	1	1	14	775	0	0	0
0.301	1	1	31	2	1	12	597	0	0	0
0.301	2	2	31	2	1	14	775	0	0	0
0.301	3	3	31	2	5	28	2196	0	0	0
0.301	4	4	31	2	2	28	2196	0	0	0
0.302	1	1	31	3	1	18	967	0	0	0
0.302	2	2	31	3	1	18	967	0	0	0
0.302	3	3	31	3	5	28	2196	0	0	0
0.302	4	4	31	3	2	28	2196	0	0	0
0.303	1	1	31	4	1	18	967	0	0	0
0.303	2	2	31	4	1	18	967	0	0	0
0.303	3	3	31	4	5	28	2196	0	0	0
0.304	1	1	31	5	1	12	597	0	0	0
0.304	2	2	31	5	1	14	775	0	0	0
0.304	3	3	31	5	5	28	2196	0	0	0
0.305	1	1	31	6	1	12	597	0	0	0
0.305	2	2	31	6	1	14	775	0	0	0
0.305	3	3	31	6	5	28	2196	0	0	0
0.305	4	4	31	6	2	28	2196	0	0	0
0.306	1	1	31	7	1	12	597	0	0	0
0.306	2	2	31	7	1	14	775	0	0	0
0.306	3	3	31	7	5	28	2196	0	0	0
0.306	4	4	31	7	2	28	2196	0	0	0
0.307	1	1	31	8	1	12	597	0	0	0
0.307	2	2	31	8	1	14	775	0	0	0
0.307	3	3	31	8	5	28	2196	0	0	0
0.307	4	4	31	8	2	28	2196	0	0	0
0.308	1	1	31	9	1	18	967	0	0	0
0.308	2	2	31	9	1	14	775	0	0	0
0.308	3	3	31	9	5	28	2196	0	0	0
0.308	4	4	31	9	2	28	2196	0	0	0
0.309	1	1	31	10	1	18	967	0	0	0
0.309	2	2	31	10	1	18	967	0	0	0
0.31	1	1	32	1	1	18	967	0	0	0
0.31	2	2	32	1	1	18	967	0	0	0
0.311	1	1	32	2	1	12	597	0	0	0
0.311	2	2	32	2	1	10	469	0	0	0
0.311	4	4	32	2	2	28	2196	0	0	0
0.312	1	1	32	3	1	14	775	0	0	0
0.312	2	2	32	3	1	14	775	0	0	0
0.312	4	4	32	3	2	28	2196	0	0	0
0.313	1	1	32	4	1	14	775	0	0	0
0.313	2	2	32	4	1	14	775	0	0	0
0.314	1	1	32	5	1	12	597	0	0	0
0.314	2	2	32	5	1	14	775	0	0	0
0.315	1	1	32	6	1	18	967	0	0	0
0.315	2	2	32	6	1	10	469	0	0	0
0.316	1	1	32	7	1	12	597	0	0	0
0.316	2	2	32	7	1	10	469	0	0	0
0.317	1	1	32	8	1	12	597	0	0	0
0.317	2	2	32	8	1	10	469	0	0	0
0.317	3	3	32	8	5	28	2196	0	0	0
0.317	4	4	32	8	2	28	2196	0	0	0
0.318	1	1	32	9	1	18	967	0	0	0
0.318	2	2	32	9	1	18	967	0	0	0
0.318	3	3	32	9	5	28	2196	0	0	0
0.318	4	4	32	9	2	28	2196	0	0	0
0.319	1	1	32	10	1	18	967	0	0	0
0.319	2	2	32	10	1	18	967	0	0	0
0.319	3	3	32	10	5	28	2196	0	0	0
0.32	1	1	33	1	1	12	597	0	0	0
0.32	2	2	33	1	1	14	775	0	0	0
0.32	3	3	33	1	5	28	2196	0	0	0
0.321	1	1	33	2	1	12	597	0	0	0
0.321	2	2	33	2	1	14	775	0	0	0
0.321	3	3	33	2	5	28	2196	0	0	0
0.321	4	4	33	2	2	28	2196	0	0	0
0.322	1	1	33	3	1	18	967	0	0	0
0.322	2	2	33	3	1	18	967	0	0	0
0.322	3	3	33	3	5	28	2196	0	0	0
0.322	4	4	33	3	2	28	2196	0	0	0
0.323	1	1	33	4	1	18	967	0	0	0
0.323	2	2	33	4	1	18	967	0	0	0
0.323	3	3	33	4	5	28	2196	0	0	0
0.323	4	4	33	4	2	28	2196	0	0	0
0.324	1	1	33	5	1	18	967	0	0	0
0.324	2	2	33	5	1	18	967	0	0	0
0.324	3	3	33	5	5	28	2196	0	0	0
0.324	4	4	33	5	2	28	2196	0	0	0
0.325	1	1	33	6	1	18	967	0	0	0
0.325	2	2	33	6	1	18	967	0	0	0
0.326	1	1	33	7	1	18	967	0	0	0
0.326	2	2	33	7	1	18	967	0	0	0
0.327	1	1	33	8	1	12	597	0	0	0
0.327	2	2	33	8	1	10	469	0	0	0
0.327	4	4	33	8	2	28	2196	0	0	0
0.328	1	1	33	9	1	14	775	0	0	0
0.328	2	2	33	9	1	14	775	0	0	0
0.328	4	4	33	9	2	28	2196	0	0	0
0.329	1	1	33	10	1	18	967	0	0	0
0.329	2	2	33	10	1	18	967	0	0	0
0.33	1	1	34	1	1	18	967	0	0	0
0.33	2	2	34	1	1	18	967	0	0	0
0.331	1	1	34	2	1	18	967	0	0	0
0.331	2	2	34	2	1	18	967	0	0	0
0.332	1	1	34	3	1	12	597	0	0	0
0.332	2	2	34	3	1	10	469	0	0	0
0.333	1	1	34	4	1	12	597	0	0	0
0.333	2	2	34	4	1	10	469	0	0	0
0.333	3	3	34	4	5	28	2196	0	0	0
0.333	4	4	34	4	2	28	2196	0	0	0
0.334	1	1	34	5	1	18	967	0	0	0
0.334	2	2	34	5	1	18	967	0	0	0
0.334	3	3	34	5	5	28	2196	0	0	0
0.334	4	4	34	5	2	28	2196	0	0	0
0.335	1	1	34	6	1	18	967	0	0	0
0.335	2	2	34	6	1	18	967	0	0	0
0.335	3	3	34	6	5	28	2196	0	0	0
0.336	1	1	34	7	1	12	597	0	0	0
0.336	2	2	34	7	1	14	775	0	0	0
0.336	3	3	34	7	5	28	2196	0	0	0
0.337	1	1	34	8	1	12	597	0	0	0
0.337	2	2	34	8	1	14	775	0	0	0
0.337	3	3	34	8	5	28	2196	0	0	0
0.337	4	4	34	8	2	28	2196	0	0	0
0.338	1	1	34	9	1	18	967	0	0	0
0.338	2	2	34	9	1	18	967	0	0	0
0.338	3	3	34	9	5	28	2196	0	0	0
0.338	4	4	34	9	2	28	2196	0	0	0
0.339	1	1	34	10	1	18	967	0	0	0
0.339	2	2	34	10	1	18	967	0	0	0
0.339	3	3	34	10	5	28	2196	0	0	0
0.339	4	4	34	10	2	28	2196	0	0	0
0.34	1	1	35	1	1	18	967	0	0	0
0.34	2	2	35	1	1	18	967	0	0	0
0.34	3	3	35	1	5	28	2196	0	0	0
0.34	4	4	35	1	2	28	2196	0	0	0
0.341	1	1	35	2	1	18	967	0	0	0
0.341	2	2	35	2	1	18	967	0	0	0
0.341	4	4	35	2	2	28	2196	0	0	0
0.342	1	1	35	3	1	12	597	0	0	0
0.342	2	2	35	3	1	18	967	0	0	0
0.343	1	1	35	4	1	12	597	0	0	0
0.343	2	2	35	4	1	10	469	0	0	0
0.343	4	4	35	4	2	28	2196	0	0	0
0.344	1	1	35	5	1	14	775	0	0	0
0.344	2	2	35	5	1	14	775	0	0	0
0.344	4	4	35	5	2	28	2196	0	0	0
0.345	1	1	35	6	1	18	967	0	0	0
0.345	2	2	35	6	1	18	967	0	0	0
0.346	1	1	35	7	1	18	967	0	0	0
0.346	2	2	35	7	1	18	967	0	0	0
0.346	3	3	35	7	5	28	2196	0	0	0
0.347	1	1	35	8	1	18	967	0	0	0
0.347	2	2	35	8	1	18	967	0	0	0
0.348	1	1	35	9	1	12	597	0	0	0
0.348	2	2	35	9	1	10	469	0	0	0
0.349	1	1	35	10	1	12	597	0	0	0
0.349	2	2	35	10	1	10	469	0	0	0
0.349	3	3	35	10	5	28	2196	0	0	0
0.35	1	1	36	1	1	18	967	0	0	0
0.35	2	2	36	1	1	18	967	0	0	0
0.35	3	3	36	1	5	28	2196	0	0	0
0.351	1	1	36	2	1	18	967	0	0	0
0.351	2	2	36	2	1	18	967	0	0	0
0.351	3	3	36	2	5	28	2196	0	0	0
0.352	1	1	36	3	1	12	597	0	0	0
0.352	2	2	36	3	1	14	775	0	0	0
0.352	3	3	36	3	5	28	2196	0	0	0
0.353	1	1	36	4	1	12	597	0	0	0
0.353	2	2	36	4	1	14	775	0	0	0
0.353	3	3	36	4	5	28	2196	0	0	0
0.353	4	4	36	4	2	28	2196	0	0	0
0.354	1	1	36	5	1	14	775	0	0	0
0.354	2	2	36	5	1	12	597	0	0	0
0.354	3	3	36	5	5	28	2196	0	0	0
0.354	4	4	36	5	2	28	2196	0	0	0
0.355	1	1	36	6	1	14	775	0	0	0
0.355	2	2	36	6	1	12	597	0	0	0
0.355	3	3	36	6	5	28	2196	0	0	0
0.355	4	4	36	6	2	28	2196	0	0	0
0.356	1	1	36	7	1	18	967	0	0	0
0.356	2	2	36	7	1	18	967	0	0	0
0.356	4	4	36	7	2	28	2196	0	0	0
0.357	1	1	36	8	1	18	967	0	0	0
0.357	2	2	36	8	1	18	967	0	0	0
0.357	4	4	36	8	2	28	2196	0	0	0
0.358	1	1	36	9	1	18	967	0	0	0
0.358	2	2	36	9	1	18	967	0	0	0
0.358	4	4	36	9	2	28	2196	0	0	0
0.359	1	1	36	10	1	14	775	0	0	0
0.359	2	2	36	10	1	12	597	0	0	0
0.359	4	4	36	10	2	28	2196	0	0	0
0.36	1	1	37	1	1	14	775	0	0	0
0.36	2	2	37	1	1	14	775	0	0	0
0.36	4	4	37	1	2	28	2196	0	0	0
0.361	1	1	37	2	1	14	775	0	0	0
0.361	2	2	37	2	1	12	597	0	0	0
0.362	1	1	37	3	1	12	597	0	0	0
0.362	2	2	37	3	1	10	469	0	0	0
0.363	1	1	37	4	1	18	967	0	0	0
0.363	2	2	37	4	1	18	967	0	0	0
0.364	1	1	37	5	1	12	597	0	0	0
0.364	2	2	37	5	1	14	775	0	0	0
0.365	1	1	37	6	1	12	597	0	0	0
0.365	2	2	37	6	1	14	775	0	0	0
0.365	3	3	37	6	5	28	2196	0	0	0
0.366	1	1	37	7	1	12	597	0	0	0
0.366	2	2	37	7	1	14	775	0	0	0
0.366	3	3	37	7	5	28	2196	0	0	0
0.367	1	1	37	8	1	12	597	0	0	0
0.367	2	2	37	8	1	14	775	0	0	0
0.367	3	3	37	8	5	28	2196	0	0	0
0.368	1	1	37	9	1	12	597	0	0	0
0.368	2	2	37	9	1	14	775	0	0	0
0.368	3	3	37	9	5	28	2196	0	0	0
0.369	1	1	37	10	1	12	597	0	0	0
0.369	2	2	37	10	1	14	775	0	0	0
0.369	3	3	37	10	5	28	2196	0	0	0
0.369	4	4	37	10	2	28	2196	0	0	0
0.37	1	1	38	1	1	18	967	0	0	0
0.37	2	2	38	1	1	18	967	0	0	0
0.37	3	3	38	1	5	28	2196	0	0	0
0.37	4	4	38	1	2	28	2196	0	0	0
0.371	1	1	38	2	1	18	967	0	0	0
0.371	2	2	38	2	1	18	967	0	0	0
0.371	3	3	38	2	5	28	2196	0	0	0
0.371	4	4	38	2	2	28	2196	0	0	0
0.372	1	1	38	3	1	18	967	0	0	0
0.372	2	2	38	3	1	18	967	0	0	0
0.372	3	3	38	3	5	28	2196	0	0	0
0.372	4	4	38	3	2	28	2196	0	0	0
0.373	1	1	38	4	1	18	967	0	0	0
0.373	2	2	38	4	1	18	967	0	0	0
0.373	4	4	38	4	2	28	2196	0	0	0
0.374	1	1	38	5	1	14	775	0	0	0
0.374	2	2	38	5	1	12	597	0	0	0
0.374	4	4	38	5	2	28	2196	0	0	0
0.375	1	1	38	6	1	14	775	0	0	0
0.375	2	2	38	6	1	12	597	0	0	0
0.375	4	4	38	6	2	28	2196	0	0	0
0.376	1	1	38	7	1	14	775	0	0	0
0.376	2	2	38	7	1	14	775	0	0	0
0.376	4	4	38	7	2	28	2196	0	0	0
0.377	1	1	38	8	1	18	967	0	0	0
0.377	2	2	38	8	1	18	967	0	0	0
0.378	1	1	38	9	1	18	967	0	0	0
0.378	2	2	38	9	1	18	967	0	0	0
0.379	1	1	38	10	1	18	967	0	0	0
0.379	2	2	38	10	1	18	967	0	0	0
0.38	1	1	39	1	1	18	967	0	0	0
0.38	2	2	39	1	1	18	967	0	0	0
0.381	1	1	39	2	1	12	597	0	0	0
0.381	2	2	39	2	1	10	469	0	0	0
0.381	3	3	39	2	5	28	2196	0	0	0
0.382	1	1	39	3	1	12	597	0	0	0
0.382	2	2	39	3	1	14	775	0	0	0
0.382	3	3	39	3	5	28	2196	0	0	0
0.383	1	1	39	4	1	12	597	0	0	0
0.383	2	2	39	4	1	14	775	0	0	0
0.383	3	3	39	4	5	28	2196	0	0	0
0.383	4	4	39	4	2	28	2196	0	0	0
0.384	1	1	39	5	1	12	597	0	0	0
0.384	2	2	39	5	1	14	775	0	0	0
0.384	3	3	39	5	5	28	2196	0	0	0
0.385	1	1	39	6	1	12	597	0	0	0
0.385	2	2	39	6	1	14	775	0	0	0
0.385	3	3	39	6	5	28	2196	0	0	0
0.385	4	4	39	6	2	28	2196	0	0	0
0.386	1	1	39	7	1	18	967	0	0	0
0.386	2	2	39	7	1	18	967	0	0	0
0.386	3	3	39	7	5	28	2196	0	0	0
0.386	4	4	39	7	2	28	2196	0	0	0
0.387	1	1	39	8	1	18	967	0	0	0
0.387	2	2	39	8	1	18	967	0	0	0
0.387	3	3	39	8	5	28	2196	0	0	0
0.387	4	4	39	8	2	28	2196	0	0	0
0.388	1	1	39	9	1	18	967	0	0	0
0.388	2	2	39	9	1	18	967	0	0	0
0.388	3	3	39	9	5	28	2196	0	0	0
0.388	4	4	39	9	2	28	2196	0	0	0
0.389	1	1	39	10	1	18	967	0	0	0
0.389	2	2	39	10	1	18	967	0	0	0
0.389	4	4	39	10	2	28	2196	0	0	0
0.39	1	1	40	1	1	14	775	0	0	0
0.39	2	2	40	1	1	14	775	0	0	0
0.39	4	4	40	1	2	28	2196	0	0	0
0.391	1	1	40	2	1	14	775	0	0	0
0.391	2	2	40	2	1	12	597	0	0	0
0.391	3	3	40	2	5	28	2196	0	0	0
0.392	1	1	40	3	1	14	775	0	0	0
0.392	2	2	40	3	1	14	775	0	0	0
0.392	3	3	40	3	5	28	2196	0	0	0
0.393	1	1	40	4	1	18	967	0	0	0
0.393	2	2	40	4	1	18	967	0	0	0
0.394	1	1	40	5	1	18	967	0	0	0
0.394	2	2	40	5	1	18	967	0	0	0
0.395	1	1	40	6	1	18	967	0	0	0
0.395	2	2	40	6	1	18	967	0	0	0
0.396	1	1	40	7	1	18	967	0	0	0
0.396	2	2	40	7	1	18	967	0	0	0
0.397	1	1	40	8	1	12	597	0	0	0
0.397	2	2	40	8	1	10	469	0	0	0
0.397	3	3	40	8	5	28	2196	0	0	0
0.398	1	1	40	9	1	12	597	0	0	0
0.398	2	2	40	9	1	14	775	0	0	0
0.398	3	3	40	9	5	28	2196	0	0	0
0.399	1	1	40	10	1	12	597	0	0	0
0.399	2	2	40	10	1	14	775	0	0	0
0.399	4	4	40	10	2	28	2196	0	0	0
0.4	1	1	41	1	1	14	775	0	0	0
0.4	2	2	41	1	1	12	597	0	0	0
0.4	4	4	41	1	2	28	2196	0	0	0
0.401	1	1	41	2	1	14	775	0	0	0
0.401	2	2	41	2	1	12	597	0	0	0
0.401	3	3	41	2	5	28	2196	0	0	0
0.401	4	4	41	2	2	28	2196	0	0	0
0.402	1	1	41	3	1	18	967	0	0	0
0.402	2	2	41	3	1	18	967	0	0	0
0.402	3	3	41	3	5	28	2196	0	0	0
0.402	4	4	41	3	2	28	2196	0	0	0
0.403	1	1	41	4	1	18	967	0	0	0
0.403	2	2	41	4	1	18	967	0	0	0
0.403	3	3	41	4	5	28	2196	0	0	0
0.403	4	4	41	4	2	28	2196	0	0	0
0.404	1	1	41	5	1	18	967	0	0	0
0.404	2	2	41	5	1	18	967	0	0	0
0.404	3	3	41	5	5	28	2196	0	0	0
0.404	4	4	41	5	2	28	2196	0	0	0
0.405	1	1	41	6	1	18	967	0	0	0
0.405	2	2	41	6	1	18	967	0	0	0
0.405	4	4	41	6	2	28	2196	0	0	0
0.406	1	1	41	7	1	14	775	0	0	0
0.406	2	2	41	7	1	12	597	0	0	0
0.406	4	4	41	7	2	28	2196	0	0	0
0.407	1	1	41	8	1	14	775	0	0	0
0.407	2	2	41	8	1	12	597	0	0	0
0.407	3	3	41	8	5	28	2196	0	0	0
0.408	1	1	41	9	1	12	597	0	0	0
0.408	2	2	41	9	1	14	775	0	0	0
0.408	3	3	41	9	5	28	2196	0	0	0
0.409	1	1	41	10	1	18	967	0	0	0
0.409	2	2	41	10	1	18	967	0	0	0
0.41	1	1	42	1	1	18	967	0	0	0
0.41	2	2	42	1	1	18	967	0	0	0
0.411	1	1	42	2	1	18	967	0	0	0
0.411	2	2	42	2	1	18	967	0	0	0
0.412	1	1	42	3	1	18	967	0	0	0
0.412	2	2	42	3	1	18	967	0	0	0
0.413	1	1	42	4	1	12	597	0	0	0
0.413	2	2	42	4	1	10	469	0	0	0
0.413	3	3	42	4	5	28	2196	0	0	0
0.414	1	1	42	5	1	12	597	0	0	0
0.414	2	2	42	5	1	14	775	0	0	0
0.414	3	3	42	5	5	28	2196	0	0	0
0.415	1	1	42	6	1	12	597	0	0	0
0.415	2	2	42	6	1	14	775	0	0	0
0.415	4	4	42	6	2	28	2196	0	0	0
0.416	1	1	42	7	1	14	775	0	0	0
0.416	2	2	42	7	1	12	597	0	0	0
0.416	4	4	42	7	2	28	2196	0	0	0
0.417	1	1	42	8	1	14	775	0	0	0
0.417	2	2	42	8	1	12	597	0	0	0
0.417	3	3	42	8	5	28	2196	0	0	0
0.417	4	4	42	8	2	28	2196	0	0	0
0.418	1	1	42	9	1	18	967	0	0	0
0.418	2	2	42	9	1	18	967	0	0	0
0.418	3	3	42	9	5	28	2196	0	0	0
0.418	4	4	42	9	2	28	2196	0	0	0
0.419	1	1	42	10	1	18	967	0	0	0
0.419	2	2	42	10	1	18	967	0	0	0
0.419	3	3	42	10	5	28	2196	0	0	0
0.419	4	4	42	10	2	28	2196	0	0	0
0.42	1	1	43	1	1	18	967	0	0	0
0.42	2	2	43	1	1	18	967	0	0	0
0.42	3	3	43	1	5	28	2196	0	0	0
0.42	4	4	43	1	2	28	2196	0	0	0
0.421	1	1	43	2	1	18	967	0	0	0
0.421	2	2	43	2	1	18	967	0	0	0
0.421	4	4	43	2	2	28	2196	0	0	0
0.422	1	1	43	3	1	14	775	0	0	0
0.422	2	2	43	3	1	12	597	0	0	0
0.422	4	4	43	3	2	28	2196	0	0	0
0.423	1	1	43	4	1	14	775	0	0	0
0.423	2	2	43	4	1	12	597	0	0	0
0.423	3	3	43	4	5	28	2196	0	0	0
0.424	1	1	43	5	1	12	597	0	0	0
0.424	2	2	43	5	1	14	775	0	0	0
0.424	3	3	43	5	5	28	2196	0	0	0
0.424	4	4	43	5	2	28	2196	0	0	0
0.425	1	1	43	6	1	18	967	0	0	0
0.425	2	2	43	6	1	18	967	0	0	0
0.426	1	1	43	7	1	18	967	0	0	0
0.426	2	2	43	7	1	18	967	0	0	0
0.427	1	1	43	8	1	18	967	0	0	0
0.427	2	2	43	8	1	18	967	0	0	0
0.427	3	3	43	8	5	28	2196	0	0	0
0.428	1	1	43	9	1	18	967	0	0	0
0.428	2	2	43	9	1	18	967	0	0	0
0.429	1	1	43	10	1	12	597	0	0	0
0.429	2	2	43	10	1	10	469	0	0	0
0.429	3	3	43	10	5	28	2196	0	0	0
0.43	1	1	44	1	1	12	597	0	0	0
0.43	2	2	44	1	1	14	775	0	0	0
0.43	3	3	44	1	5	28	2196	0	0	0
0.431	1	1	44	2	1	12	597	0	0	0
0.431	2	2	44	2	1	14	775	0	0	0
0.431	4	4	44	2	2	28	2196	0	0	0
0.432	1	1	44	3	1	12	597	0	0	0
0.432	2	2	44	3	1	10	469	0	0	0
0.432	4	4	44	3	2	28	2196	0	0	0
0.433	1	1	44	4	1	12	597	0	0	0
0.433	2	2	44	4	1	10	469	0	0	0
0.433	3	3	44	4	5	28	2196	0	0	0
0.433	4	4	44	4	2	28	2196	0	0	0
0.434	1	1	44	5	1	18	967	0	0	0
0.434	2	2	44	5	1	18	967	0	0	0
0.434	3	3	44	5	5	28	2196	0	0	0
0.434	4	4	44	5	2	28	2196	0	0	0
0.435	1	1	44	6	1	18	967	0	0	0
0.435	2	2	44	6	1	18	967	0	0	0
0.435	4	4	44	6	2	28	2196	0	0	0
0.436	1	1	44	7	1	18	967	0	0	0
0.436	2	2	44	7	1	18	967	0	0	0
0.436	4	4	44	7	2	28	2196	0	0	0
0.437	1	1	44	8	1	18	967	0	0	0
0.437	2	2	44	8	1	18	967	0	0	0
0.437	4	4	44	8	2	28	2196	0	0	0
0.438	1	1	44	9	1	14	775	0	0	0
0.438	2	2	44	9	1	12	597	0	0	0
0.438	4	4	44	9	2	28	2196	0	0	0
0.439	1	1	44	10	1	14	775	0	0	0
0.439	2	2	44	10	1	12	597	0	0	0
0.439	3	3	44	10	5	28	2196	0	0	0
0.439	4	4	44	10	2	28	2196	0	0	0
0.44	1	1	45	1	1	12	597	0	0	0
0.44	2	2	45	1	1	14	775	0	0	0
0.44	3	3	45	1	5	28	2196	0	0	0
0.441	1	1	45	2	1	18	967	0	0	0
0.441	2	2	45	2	1	18	967	0	0	0
0.442	1	1	45	3	1	18	967	0	0	0
0.442	2	2	45	3	1	18	967	0	0	0
0.443	1	1	45	4	1	18	967	0	0	0
0.443	2	2	45	4	1	18	967	0	0	0
0.443	3	3	45	4	5	28	2196	0	0	0
0.444	1	1	45	5	1	18	967	0	0	0
0.444	2	2	45	5	1	18	967	0	0	0
0.444	3	3	45	5	5	28	2196	0	0	0
0.445	1	1	45	6	1	12	597	0	0	0
0.445	2	2	45	6	1	14	775	0	0	0
0.445	3	3	45	6	5	28	2196	0	0	0
0.445	4	4	45	6	2	28	2196	0	0	0
0.446	1	1	45	7	1	12	597	0	0	0
0.446	2	2	45	7	1	14	775	0	0	0
0.446	3	3	45	7	5	28	2196	0	0	0
0.447	1	1	45	8	1	12	597	0	0	0
0.447	2	2	45	8	1	14	775	0	0	0
0.448	1	1	45	9	1	14	775	0	0	0
0.448	2	2	45	9	1	12	597	0	0	0
0.449	1	1	45	10	1	14	775	0	0	0
0.449	2	2	45	10	1	12	597	0	0	0
0.449	3	3	45	10	5	28	2196	0	0	0
0.449	4	4	45	10	2	28	2196	0	0	0
0.45	1	1	46	1	1	18	967	0	0	0
0.45	2	2	46	1	1	18	967	0	0	0
0.45	3	3	46	1	5	28	2196	0	0	0
0.45	4	4	46	1	2	28	2196	0	0	0
0.451	1	1	46	2	1	18	967	0	0	0
0.451	2	2	46	2	1	18	967	0	0	0
0.451	4	4	46	2	2	28	2196	0	0	0
0.452	1	1	46	3	1	14	775	0	0	0
0.452	2	2	46	3	1	14	775	0	0	0
0.452	4	4	46	3	2	28	2196	0	0	0
0.453	1	1	46	4	1	14	775	0	0	0
0.453	2	2	46	4	1	12	597	0	0	0
0.454	1	1	46	5	1	14	775	0	0	0
0.454	2	2	46	5	1	12	597	0	0	0
0.455	1	1	46	6	1	14	775	0	0	0
0.455	2	2	46	6	1	12	597	0	0	0
0.455	3	3	46	6	5	28	2196	0	0	0
0.455	4	4	46	6	2	28	2196	0	0	0
0.456	1	1	46	7	1	18	967	0	0	0
0.456	2	2	46	7	1	18	967	0	0	0
0.456	3	3	46	7	5	28	2196	0	0	0
0.456	4	4	46	7	2	28	2196	0	0	0
0.457	1	1	46	8	1	18	967	0	0	0
0.457	2	2	46	8	1	18	967	0	0	0
0.458	1	1	46	9	1	18	967	0	0	0
0.458	2	2	46	9	1	18	967	0	0	0
0.459	1	1	46	10	1	12	597	0	0	0
0.459	2	2	46	10	1	10	469	0	0	0
0.459	3	3	46	10	5	28	2196	0	0	0
0.46	1	1	47	1	1	12	597	0	0	0
0.46	2	2	47	1	1	14	775	0	0	0
0.46	3	3	47	1	5	28	2196	0	0	0
0.461	1	1	47	2	1	12	597	0	0	0
0.461	2	2	47	2	1	14	775	0	0	0
0.461	3	3	47	2	5	28	2196	0	0	0
0.461	4	4	47	2	2	28	2196	0	0	0
0.462	1	1	47	3	1	18	967	0	0	0
0.462	2	2	47	3	1	18	967	0	0	0
0.462	3	3	47	3	5	28	2196	0	0	0
0.462	4	4	47	3	2	28	2196	0	0	0
0.463	1	1	47	4	1	18	967	0	0	0
0.463	2	2	47	4	1	18	967	0	0	0
0.464	1	1	47	5	1	12	597	0	0	0
0.464	2	2	47	5	1	10	469	0	0	0
0.465	1	1	47	6	1	12	597	0	0	0
0.465	2	2	47	6	1	10	469	0	0	0
0.465	3	3	47	6	5	28	2196	0	0	0
0.465	4	4	47	6	2	28	2196	0	0	0
0.466	1	1	47	7	1	18	967	0	0	0
0.466	2	2	47	7	1	18	967	0	0	0
0.466	3	3	47	7	5	28	2196	0	0	0
0.466	4	4	47	7	2	28	2196	0	0	0
0.467	1	1	47	8	1	18	967	0	0	0
0.467	2	2	47	8	1	18	967	0	0	0
0.467	4	4	47	8	2	28	2196	0	0	0
0.468	1	1	47	9	1	14	775	0	0	0
0.468	2	2	47	9	1	14	775	0	0	0
0.468	4	4	47	9	2	28	2196	0	0	0
0.469	1	1	47	10	1	18	967	0	0	0
0.469	2	2	47	10	1	18	967	0	0	0
0.47	1	1	48	1	1	12	597	0	0	0
0.47	2	2	48	1	1	10	469	0	0	0
0.471	1	1	48	2	1	12	597	0	0	0
0.471	2	2	48	2	1	10	469	0	0	0
0.471	3	3	48	2	5	28	2196	0	0	0
0.471	4	4	48	2	2	28	2196	0	0	0
0.472	1	1	48	3	1	18	967	0	0	0
0.472	2	2	48	3	1	18	967	0	0	0
0.472	3	3	48	3	5	28	2196	0	0	0
0.472	4	4	48	3	2	28	2196	0	0	0
0.473	1	1	48	4	1	18	967	0	0	0
0.473	2	2	48	4	1	18	967	0	0	0
0.474	1	1	48	5	1	18	967	0	0	0
0.474	2	2	48	5	1	18	967	0	0	0
0.475	1	1	48	6	1	12	597	0	0	0
0.475	2	2	48	6	1	10	469	0	0	0
0.475	3	3	48	6	5	28	2196	0	0	0
0.476	1	1	48	7	1	12	597	0	0	0
0.476	2	2	48	7	1	14	775	0	0	0
0.476	3	3	48	7	5	28	2196	0	0	0
0.477	1	1	48	8	1	12	597	0	0	0
0.477	2	2	48	8	1	14	775	0	0	0
0.477	3	3	48	8	5	28	2196	0	0	0
0.477	4	4	48	8	2	28	2196	0	0	0
0.478	1	1	48	9	1	18	967	0	0	0
0.478	2	2	48	9	1	18	967	0	0	0
0.478	3	3	48	9	5	28	2196	0	0	0
0.478	4	4	48	9	2	28	2196	0	0	0
0.479	1	1	48	10	1	18	967	0	0	0
0.479	2	2	48	10	1	18	967	0	0	0
0.48	1	1	49	1	1	12	597	0	0	0
0.48	2	2	49	1	1	10	469	0	0	0
0.481	1	1	49	2	1	12	597	0	0	0
0.481	2	2	49	2	1	10	469	0	0	0
0.481	3	3	49	2	5	28	2196	0	0	0
0.481	4	4	49	2	2	28	2196	0	0	0
0.482	1	1	49	3	1	18	967	0	0	0
0.482	2	2	49	3	1	18	967	0	0	0
0.482	3	3	49	3	5	28	2196	0	0	0
0.482	4	4	49	3	2	28	2196	0	0	0
0.483	1	1	49	4	1	18	967	0	0	0
0.483	2	2	49	4	1	18	967	0	0	0
0.483	4	4	49	4	2	28	2196	0	0	0
0.484	1	1	49	5	1	14	775	0	0	0
0.484	2	2	49	5	1	14	775	0	0	0
0.484	4	4	49	5	2	28	2196	0	0	0
0.485	1	1	49	6	1	18	967	0	0	0
0.485	2	2	49	6	1	18	967	0	0	0
0.486	1	1	49	7	1	12	597	0	0	0
0.486	2	2	49	7	1	10	469	0	0	0
0.487	1	1	49	8	1	12	597	0	0	0
0.487	2	2	49	8	1	10	469	0	0	0
0.487	3	3	49	8	5	28	2196	0	0	0
0.487	4	4	49	8	2	28	2196	0	0	0
0.488	1	1	49	9	1	18	967	0	0	0
0.488	2	2	49	9	1	18	967	0	0	0
0.488	3	3	49	9	5	28	2196	0	0	0
0.488	4	4	49	9	2	28	2196	0	0	0
0.489	1	1	49	10	1	18	967	0	0	0
0.489	2	2	49	10	1	18	967	0	0	0
0.489	3	3	49	10	5	28	2196	0	0	0
0.49	1	1	50	1	1	18	967	0	0	0
0.49	2	2	50	1	1	18	967	0	0	0
0.491	1	1	50	2	1	12	597	0	0	0
0.491	2	2	50	2	1	10	469	0	0	0
0.491	3	3	50	2	5	28	2196	0	0	0
0.492	1	1	50	3	1	12	597	0	0	0
0.492	2	2	50	3	1	14	775	0	0	0
0.492	3	3	50	3	5	28	2196	0	0	0
0.493	1	1	50	4	1	12	597	0	0	0
0.493	2	2	50	4	1	14	775	0	0	0
0.493	3	3	50	4	5	28	2196	0	0	0
0.493	4	4	50	4	2	28	2196	0	0	0
0.494	1	1	50	5	1	18	967	0	0	0
0.494	2	2	50	5	1	18	967	0	0	0
0.494	3	3	50	5	5	28	2196	0	0	0
0.494	4	4	50	5	2	28	2196	0	0	0
0.495	1	1	50	6	1	18	967	0	0	0
0.495	2	2	50	6	1	18	967	0	0	0
0.495	4	4	50	6	2	28	2196	0	0	0
0.496	1	1	50	7	1	12	597	0	0	0
0.496	2	2	50	7	1	10	469	0	0	0
0.497	1	1	50	8	1	12	597	0	0	0
0.497	2	2	50	8	1	10	469	0	0	0
0.497	4	4	50	8	2	28	2196	0	0	0
0.498	1	1	50	9	1	18	967	0	0	0
0.498	2	2	50	9	1	18	967	0	0	0
0.498	4	4	50	9	2	28	2196	0	0	0
0.499	1	1	50	10	1	18	967	0	0	0
0.499	2	2	50	10	1	18	967	0	0	0
0.499	4	4	50	10	2	28	2196	0	0	0
0.5	1	1	51	1	1	14	775	0	0	0
0.5	2	2	51	1	1	14	775	0	0	0
0.5	4	4	51	1	2	28	2196	0	0	0
0.501	1	1	51	2	1	18	967	0	0	0
0.501	2	2	51	2	1	18	967	0	0	0
0.502	1	1	51	3	1	12	597	0	0	0
0.502	2	2	51	3	1	10	469	0	0	0
0.502	4	4	51	3	2	28	2196	0	0	0
0.503	1	1	51	4	1	12	597	0	0	0
0.503	2	2	51	4	1	10	469	0	0	0
0.503	3	3	51	4	5	28	2196	0	0	0
0.504	1	1	51	5	1	18	967	0	0	0
0.504	2	2	51	5	1	18	967	0	0	0
0.504	3	3	51	5	5	28	2196	0	0	0
0.504	4	4	51	5	2	28	2196	0	0	0
0.505	1	1	51	6	1	18	967	0	0	0
0.505	2	2	51	6	1	18	967	0	0	0
0.505	3	3	51	6	5	28	2196	0	0	0
0.506	1	1	51	7	1	18	967	0	0	0
0.506	2	2	51	7	1	18	967	0	0	0
0.506	3	3	51	7	5	28	2196	0	0	0
0.507	1	1	51	8	1	12	597	0	0	0
0.507	2	2	51	8	1	14	775	0	0	0
0.507	3	3	51	8	5	28	2196	0	0	0
0.508	1	1	51	9	1	12	597	0	0	0
0.508	2	2	51	9	1	14	775	0	0	0
0.508	3	3	51	9	5	28	2196	0	0	0
0.509	1	1	51	10	1	12	597	0	0	0
0.509	2	2	51	10	1	14	775	0	0	0
0.509	3	3	51	10	5	28	2196	0	0	0
0.509	4	4	51	10	2	28	2196	0	0	0
0.51	1	1	52	1	1	12	597	0	0	0
0.51	2	2	52	1	1	14	775	0	0	0
0.51	3	3	52	1	5	28	2196	0	0	0
0.51	4	4	52	1	2	28	2196	0	0	0
0.511	1	1	52	2	1	18	967	0	0	0
0.511	2	2	52	2	1	18	967	0	0	0
0.511	4	4	52	2	2	28	2196	0	0	0
0.512	1	1	52	3	1	12	597	0	0	0
0.512	2	2	52	3	1	10	469	0	0	0
0.512	4	4	52	3	2	28	2196	0	0	0
0.513	1	1	52	4	1	12	597	0	0	0
0.513	2	2	52	4	1	10	469	0	0	0
0.513	3	3	52	4	5	28	2196	0	0	0
0.513	4	4	52	4	2	28	2196	0	0	0
0.514	1	1	52	5	1	14	775	0	0	0
0.514	2	2	52	5	1	12	597	0	0	0
0.514	4	4	52	5	2	28	2196	0	0	0
0.515	1	1	52	6	1	14	775	0	0	0
0.515	2	2	52	6	1	12	597	0	0	0
0.515	4	4	52	6	2	28	2196	0	0	0
0.516	1	1	52	7	1	14	775	0	0	0
0.516	2	2	52	7	1	14	775	0	0	0
0.516	4	4	52	7	2	28	2196	0	0	0
0.517	1	1	52	8	1	14	775	0	0	0
0.517	2	2	52	8	1	14	775	0	0	0
0.518	1	1	52	9	1	12	597	0	0	0
0.518	2	2	52	9	1	10	469	0	0	0
0.519	1	1	52	10	1	12	597	0	0	0
0.519	2	2	52	10	1	10	469	0	0	0
0.519	3	3	52	10	5	28	2196	0	0	0
0.52	1	1	53	1	1	12	597	0	0	0
0.52	2	2	53	1	1	14	775	0	0	0
0.52	3	3	53	1	5	28	2196	0	0	0
0.521	1	1	53	2	1	12	597	0	0	0
0.521	2	2	53	2	1	14	775	0	0	0
0.522	1	1	53	3	1	12	597	0	0	0
0.522	2	2	53	3	1	14	775	0	0	0
0.523	1	1	53	4	1	12	597	0	0	0
0.523	2	2	53	4	1	14	775	0	0	0
0.523	3	3	53	4	5	28	2196	0	0	0
0.524	1	1	53	5	1	12	597	0	0	0
0.524	2	2	53	5	1	14	775	0	0	0
0.524	3	3	53	5	5	28	2196	0	0	0
0.525	1	1	53	6	1	12	597	0	0	0
0.525	2	2	53	6	1	14	775	0	0	0
0.525	3	3	53	6	5	28	2196	0	0	0
0.525	4	4	53	6	2	28	2196	0	0	0
0.526	1	1	53	7	1	18	967	0	0	0
0.526	2	2	53	7	1	18	967	0	0	0
0.526	3	3	53	7	5	28	2196	0	0	0
0.526	4	4	53	7	2	28	2196	0	0	0
0.527	1	1	53	8	1	18	967	0	0	0
0.527	2	2	53	8	1	18	967	0	0	0
0.527	4	4	53	8	2	28	2196	0	0	0
0.528	1	1	53	9	1	14	775	0	0	0
0.528	2	2	53	9	1	12	597	0	0	0
0.528	4	4	53	9	2	28	2196	0	0	0
0.529	1	1	53	10	1	14	775	0	0	0
0.529	2	2	53	10	1	12	597	0	0	0
0.529	3	3	53	10	5	28	2196	0	0	0
0.529	4	4	53	10	2	28	2196	0	0	0
0.53	1	1	54	1	1	18	967	0	0	0
0.53	2	2	54	1	1	18	967	0	0	0
0.53	3	3	54	1	5	28	2196	0	0	0
0.53	4	4	54	1	2	28	2196	0	0	0
0.531	1	1	54	2	1	18	967	0	0	0
0.531	2	2	54	2	1	18	967	0	0	0
0.531	4	4	54	2	2	28	2196	0	0	0
0.532	1	1	54	3	1	14	775	0	0	0
0.532	2	2	54	3	1	14	775	0	0	0
0.532	4	4	54	3	2	28	2196	0	0	0
0.533	1	1	54	4	1	18	967	0	0	0
0.533	2	2	54	4	1	18	967	0	0	0
0.534	1	1	54	5	1	18	967	0	0	0
0.534	2	2	54	5	1	18	967	0	0	0
0.535	1	1	54	6	1	12	597	0	0	0
0.535	2	2	54	6	1	10	469	0	0	0
0.535	3	3	54	6	5	28	2196	0	0	0
0.536	1	1	54	7	1	12	597	0	0	0
0.536	2	2	54	7	1	14	775	0	0	0
0.536	3	3	54	7	5	28	2196	0	0	0
0.537	1	1	54	8	1	18	967	0	0	0
0.537	2	2	54	8	1	18	967	0	0	0
0.538	1	1	54	9	1	18	967	0	0	0
0.538	2	2	54	9	1	18	967	0	0	0
0.539	1	1	54	10	1	12	597	0	0	0
0.539	2	2	54	10	1	10	469	0	0	0
0.539	3	3	54	10	5	28	2196	0	0	0
0.54	1	1	55	1	1	12	597	0	0	0
0.54	2	2	55	1	1	14	775	0	0	0
0.54	3	3	55	1	5	28	2196	0	0	0
0.541	1	1	55	2	1	12	597	0	0	0
0.541	2	2	55	2	1	14	775	0	0	0
0.541	3	3	55	2	5	28	2196	0	0	0
0.541	4	4	55	2	2	28	2196	0	0	0
0.542	1	1	55	3	1	18	967	0	0	0
0.542	2	2	55	3	1	18	967	0	0	0
0.542	3	3	55	3	5	28	2196	0	0	0
0.542	4	4	55	3	2	28	2196	0	0	0
0.543	1	1	55	4	1	18	967	0	0	0
0.543	2	2	55	4	1	18	967	0	0	0
0.543	4	4	55	4	2	28	2196	0	0	0
0.544	1	1	55	5	1	14	775	0	0	0
0.544	2	2	55	5	1	12	597	0	0	0
0.544	4	4	55	5	2	28	2196	0	0	0
0.545	1	1	55	6	1	14	775	0	0	0
0.545	2	2	55	6	1	12	597	0	0	0
0.545	3	3	55	6	5	28	2196	0	0	0
0.545	4	4	55	6	2	28	2196	0	0	0
0.546	1	1	55	7	1	18	967	0	0	0
0.546	2	2	55	7	1	18	967	0	0	0
0.546	3	3	55	7	5	28	2196	0	0	0
0.546	4	4	55	7	2	28	2196	0	0	0
0.547	1	1	55	8	1	18	967	0	0	0
0.547	2	2	55	8	1	18	967	0	0	0
0.547	4	4	55	8	2	28	2196	0	0	0
0.548	1	1	55	9	1	14	775	0	0	0
0.548	2	2	55	9	1	14	775	0	0	0
0.548	4	4	55	9	2	28	2196	0	0	0
0.549	1	1	55	10	1	18	967	0	0	0
0.549	2	2	55	10	1	18	967	0	0	0
0.549	4	4	55	10	2	28	2196	0	0	0
0.55	1	1	56	1	1	18	967	0	0	0
0.55	2	2	56	1	1	18	967	0	0	0
0.551	1	1	56	2	1	12	597	0	0	0
0.551	2	2	56	2	1	10	469	0	0	0
0.551	3	3	56	2	5	28	2196	0	0	0
0.552	1	1	56	3	1	12	597	0	0	0
0.552	2	2	56	3	1	14	775	0	0	0
0.552	3	3	56	3	5	28	2196	0	0	0
0.553	1	1	56	4	1	18	967	0	0	0
0.553	2	2	56	4	1	18	967	0	0	0
0.554	1	1	56	5	1	18	967	0	0	0
0.554	2	2	56	5	1	18	967	0	0	0
0.555	1	1	56	6	1	12	597	0	0	0
0.555	2	2	56	6	1	10	469	0	0	0
0.555	3	3	56	6	5	28	2196	0	0	0
0.555	4	4	56	6	2	28	2196	0	0	0
0.556	1	1	56	7	1	12	597	0	0	0
0.556	2	2	56	7	1	14	775	0	0	0
0.556	3	3	56	7	5	28	2196	0	0	0
0.557	1	1	56	8	1	12	597	0	0	0
0.557	2	2	56	8	1	14	775	0	0	0
0.557	3	3	56	8	5	28	2196	0	0	0
0.558	1	1	56	9	1	18	967	0	0	0
0.558	2	2	56	9	1	18	967	0	0	0
0.558	3	3	56	9	5	28	2196	0	0	0
0.559	1	1	56	10	1	18	967	0	0	0
0.559	2	2	56	10	1	18	967	0	0	0
0.559	4	4	56	10	2	28	2196	0	0	0
0.56	1	1	57	1	1	14	775	0	0	0
0.56	2	2	57	1	1	12	597	0	0	0
0.56	4	4	57	1	2	28	2196	0	0	0
0.561	1	1	57	2	1	14	775	0	0	0
0.561	2	2	57	2	1	12	597	0	0	0
0.561	3	3	57	2	5	28	2196	0	0	0
0.561	4	4	57	2	2	28	2196	0	0	0
0.562	1	1	57	3	1	18	967	0	0	0
0.562	2	2	57	3	1	18	967	0	0	0
0.562	3	3	57	3	5	28	2196	0	0	0
0.562	4	4	57	3	2	28	2196	0	0	0
0.563	1	1	57	4	1	18	967	0	0	0
0.563	2	2	57	4	1	18	967	0	0	0
0.564	1	1	57	5	1	14	775	0	0	0
0.564	2	2	57	5	1	12	597	0	0	0
0.565	1	1	57	6	1	18	967	0	0	0
0.565	2	2	57	6	1	18	967	0	0	0
0.565	4	4	57	6	2	28	2196	0	0	0
0.566	1	1	57	7	1	18	967	0	0	0
0.566	2	2	57	7	1	18	967	0	0	0
0.566	4	4	57	7	2	28	2196	0	0	0
0.567	1	1	57	8	1	14	775	0	0	0
0.567	2	2	57	8	1	12	597	0	0	0
0.567	3	3	57	8	5	28	2196	0	0	0
0.568	1	1	57	9	1	12	597	0	0	0
0.568	2	2	57	9	1	14	775	0	0	0
0.568	3	3	57	9	5	28	2196	0	0	0
0.569	1	1	57	10	1	18	967	0	0	0
0.569	2	2	57	10	1	18	967	0	0	0
0.57	1	1	58	1	1	12	597	0	0	0
0.57	2	2	58	1	1	10	469	0	0	0
0.571	1	1	58	2	1	12	597	0	0	0
0.571	2	2	58	2	1	10	469	0	0	0
0.571	3	3	58	2	5	28	2196	0	0	0
0.571	4	4	58	2	2	28	2196	0	0	0
0.572	1	1	58	3	1	18	967	0	0	0
0.572	2	2	58	3	1	18	967	0	0	0
0.572	3	3	58	3	5	28	2196	0	0	0
0.572	4	4	58	3	2	28	2196	0	0	0
0.573	1	1	58	4	1	18	967	0	0	0
0.573	2	2	58	4	1	18	967	0	0	0
0.573	3	3	58	4	5	28	2196	0	0	0
0.574	1	1	58	5	1	12	597	0	0	0
0.574	2	2	58	5	1	14	775	0	0	0
0.574	3	3	58	5	5	28	2196	0	0	0
0.575	1	1	58	6	1	12	597	0	0	0
0.575	2	2	58	6	1	14	775	0	0	0
0.575	4	4	58	6	2	28	2196	0	0	0
0.576	1	1	58	7	1	14	775	0	0	0
0.576	2	2	58	7	1	12	597	0	0	0
0.576	4	4	58	7	2	28	2196	0	0	0
0.577	1	1	58	8	1	14	775	0	0	0
0.577	2	2	58	8	1	12	597	0	0	0
0.577	3	3	58	8	5	28	2196	0	0	0
0.577	4	4	58	8	2	28	2196	0	0	0
0.578	1	1	58	9	1	18	967	0	0	0
0.578	2	2	58	9	1	18	967	0	0	0
0.578	3	3	58	9	5	28	2196	0	0	0
0.578	4	4	58	9	2	28	2196	0	0	0
0.579	1	1	58	10	1	18	967	0	0	0
0.579	2	2	58	10	1	18	967	0	0	0
0.58	1	1	59	1	1	18	967	0	0	0
0.58	2	2	59	1	1	18	967	0	0	0
0.581	1	1	59	2	1	12	597	0	0	0
0.581	2	2	59	2	1	10	469	0	0	0
0.581	4	4	59	2	2	28	2196	0	0	0
0.582	1	1	59	3	1	14	775	0	0	0
0.582	2	2	59	3	1	12	597	0	0	0
0.582	4	4	59	3	2	28	2196	0	0	0
0.583	1	1	59	4	1	14	775	0	0	0
0.583	2	2	59	4	1	12	597	0	0	0
0.583	3	3	59	4	5	28	2196	0	0	0
0.583	4	4	59	4	2	28	2196	0	0	0
0.584	1	1	59	5	1	12	597	0	0	0
0.584	2	2	59	5	1	14	775	0	0	0
0.584	3	3	59	5	5	28	2196	0	0	0
0.585	1	1	59	6	1	18	967	0	0	0
0.585	2	2	59	6	1	18	967	0	0	0
0.585	4	4	59	6	2	28	2196	0	0	0
0.586	1	1	59	7	1	12	597	0	0	0
0.586	2	2	59	7	1	10	469	0	0	0
0.587	1	1	59	8	1	12	597	0	0	0
0.587	2	2	59	8	1	10	469	0	0	0
0.587	3	3	59	8	5	28	2196	0	0	0
0.587	4	4	59	8	2	28	2196	0	0	0
0.588	1	1	59	9	1	18	967	0	0	0
0.588	2	2	59	9	1	18	967	0	0	0
0.588	3	3	59	9	5	28	2196	0	0	0
0.588	4	4	59	9	2	28	2196	0	0	0
0.589	1	1	59	10	1	18	967	0	0	0
0.589	2	2	59	10	1	18	967	0	0	0
0.589	3	3	59	10	5	28	2196	0	0	0
0.59	1	1	60	1	1	12	597	0	0	0
0.59	2	2	60	1	1	14	775	0	0	0
0.59	3	3	60	1	5	28	2196	0	0	0
0.59	4	4	60	1	2	28	2196	0	0	0
0.591	1	1	60	2	1	12	597	0	0	0
0.591	2	2	60	2	1	14	775	0	0	0
0.592	1	1	60	3	1	14	775	0	0	0
0.592	2	2	60	3	1	12	597	0	0	0
0.593	1	1	60	4	1	14	775	0	0	0
0.593	2	2	60	4	1	12	597	0	0	0
0.593	3	3	60	4	5	28	2196	0	0	0
0.594	1	1	60	5	1	18	967	0	0	0
0.594	2	2	60	5	1	18	967	0	0	0
0.594	3	3	60	5	5	28	2196	0	0	0
0.594	4	4	60	5	2	28	2196	0	0	0
0.595	1	1	60	6	1	18	967	0	0	0
0.595	2	2	60	6	1	18	967	0	0	0
0.595	4	4	60	6	2	28	2196	0	0	0
0.596	1	1	60	7	1	18	967	0	0	0
0.596	2	2	60	7	1	18	967	0	0	0
0.597	1	1	60	8	1	12	597	0	0	0
0.597	2	2	60	8	1	14	775	0	0	0
0.597	4	4	60	8	2	28	2196	0	0	0
0.598	1	1	60	9	1	12	597	0	0	0
0.598	2	2	60	9	1	10	469	0	0	0
0.598	4	4	60	9	2	28	2196	0	0	0
0.599	1	1	60	10	1	12	597	0	0	0
0.599	2	2	60	10	1	10	469	0	0	0
0.599	3	3	60	10	5	28	2196	0	0	0
0.599	4	4	60	10	2	28	2196	0	0	0
0.6	1	1	61	1	1	18	967	0	0	0
0.6	2	2	61	1	1	18	967	0	0	0
0.6	3	3	61	1	5	28	2196	0	0	0
0.6	4	4	61	1	2	28	2196	0	0	0
0.601	1	1	61	2	1	18	967	0	0	0
0.601	2	2	61	2	1	18	967	0	0	0
0.601	4	4	61	2	2	28	2196	0	0	0
0.602	1	1	61	3	1	12	597	0	0	0
0.602	2	2	61	3	1	10	469	0	0	0
0.602	4	4	61	3	2	28	2196	0	0	0
0.603	1	1	61	4	1	12	597	0	0	0
0.603	2	2	61	4	1	10	469	0	0	0
0.603	3	3	61	4	5	28	2196	0	0	0
0.604	1	1	61	5	1	18	967	0	0	0
0.604	2	2	61	5	1	18	967	0	0	0
0.604	3	3	61	5	5	28	2196	0	0	0
0.605	1	1	61	6	1	18	967	0	0	0
0.605	2	2	61	6	1	18	967	0	0	0
0.605	3	3	61	6	5	28	2196	0	0	0
0.606	1	1	61	7	1	12	597	0	0	0
0.606	2	2	61	7	1	14	775	0	0	0
0.606	3	3	61	7	5	28	2196	0	0	0
0.607	1	1	61	8	1	18	967	0	0	0
0.607	2	2	61	8	1	18	967	0	0	0
0.608	1	1	61	9	1	12	597	0	0	0
0.608	2	2	61	9	1	10	469	0	0	0
0.609	1	1	61	10	1	12	597	0	0	0
0.609	2	2	61	10	1	10	469	0	0	0
0.609	3	3	61	10	5	28	2196	0	0	0
0.61	1	1	62	1	1	12	597	0	0	0
0.61	2	2	62	1	1	14	775	0	0	0
0.61	3	3	62	1	5	28	2196	0	0	0
0.611	1	1	62	2	1	18	967	0	0	0
0.611	2	2	62	2	1	18	967	0	0	0
0.611	4	4	62	2	2	28	2196	0	0	0
0.612	1	1	62	3	1	18	967	0	0	0
0.612	2	2	62	3	1	18	967	0	0	0
0.612	4	4	62	3	2	28	2196	0	0	0
0.613	1	1	62	4	1	14	775	0	0	0
0.613	2	2	62	4	1	12	597	0	0	0
0.613	4	4	62	4	2	28	2196	0	0	0
0.614	1	1	62	5	1	14	775	0	0	0
0.614	2	2	62	5	1	12	597	0	0	0
0.614	4	4	62	5	2	28	2196	0	0	0
0.615	1	1	62	6	1	14	775	0	0	0
0.615	2	2	62	6	1	12	597	0	0	0
0.615	3	3	62	6	5	28	2196	0	0	0
0.615	4	4	62	6	2	28	2196	0	0	0
0.616	1	1	62	7	1	18	967	0	0	0
0.616	2	2	62	7	1	18	967	0	0	0
0.616	3	3	62	7	5	28	2196	0	0	0
0.616	4	4	62	7	2	28	2196	0	0	0
0.617	1	1	62	8	1	18	967	0	0	0
0.617	2	2	62	8	1	18	967	0	0	0
0.617	4	4	62	8	2	28	2196	0	0	0
0.618	1	1	62	9	1	14	775	0	0	0
0.618	2	2	62	9	1	12	597	0	0	0
0.618	4	4	62	9	2	28	2196	0	0	0
0.619	1	1	62	10	1	14	775	0	0	0
0.619	2	2	62	10	1	12	597	0	0	0
0.619	3	3	62	10	5	28	2196	0	0	0
0.62	1	1	63	1	1	12	597	0	0	0
0.62	2	2	63	1	1	14	775	0	0	0
0.62	3	3	63	1	5	28	2196	0	0	0
0.621	1	1	63	2	1	12	597	0	0	0
0.621	2	2	63	2	1	14	775	0	0	0
0.621	3	3	63	2	5	28	2196	0	0	0
0.622	1	1	63	3	1	12	597	0	0	0
0.622	2	2	63	3	1	14	775	0	0	0
0.622	3	3	63	3	5	28	2196	0	0	0
0.623	1	1	63	4	1	18	967	0	0	0
0.623	2	2	63	4	1	18	967	0	0	0
0.624	1	1	63	5	1	18	967	0	0	0
0.624	2	2	63	5	1	18	967	0	0	0
0.625	1	1	63	6	1	12	597	0	0	0
0.625	2	2	63	6	1	10	469	0	0	0
0.625	3	3	63	6	5	28	2196	0	0	0
0.626	1	1	63	7	1	12	597	0	0	0
0.626	2	2	63	7	1	14	775	0	0	0
0.626	3	3	63	7	5	28	2196	0	0	0
0.627	1	1	63	8	1	12	597	0	0	0
0.627	2	2	63	8	1	14	775	0	0	0
0.627	4	4	63	8	2	28	2196	0	0	0
0.628	1	1	63	9	1	14	775	0	0	0
0.628	2	2	63	9	1	12	597	0	0	0
0.628	3	3	63	9	5	28	2196	0	0	0
0.628	4	4	63	9	2	28	2196	0	0	0
0.629	1	1	63	10	1	14	775	0	0	0
0.629	2	2	63	10	1	12	597	0	0	0
0.629	4	4	63	10	2	28	2196	0	0	0
0.63	1	1	64	1	1	14	775	0	0	0
0.63	2	2	64	1	1	12	597	0	0	0
0.63	4	4	64	1	2	28	2196	0	0	0
0.631	1	1	64	2	1	14	775	0	0	0
0.631	2	2	64	2	1	12	597	0	0	0
0.631	3	3	64	2	5	28	2196	0	0	0
0.631	4	4	64	2	2	28	2196	0	0	0
0.632	1	1	64	3	1	18	967	0	0	0
0.632	2	2	64	3	1	18	967	0	0	0
0.632	3	3	64	3	5	28	2196	0	0	0
0.632	4	4	64	3	2	28	2196	0	0	0
0.633	1	1	64	4	1	18	967	0	0	0
0.633	2	2	64	4	1	18	967	0	0	0
0.633	4	4	64	4	2	28	2196	0	0	0
0.634	1	1	64	5	1	14	775	0	0	0
0.634	2	2	64	5	1	12	597	0	0	0
0.634	4	4	64	5	2	28	2196	0	0	0
0.635	1	1	64	6	1	14	775	0	0	0
0.635	2	2	64	6	1	12	597	0	0	0
0.635	3	3	64	6	5	28	2196	0	0	0
0.636	1	1	64	7	1	12	597	0	0	0
0.636	2	2	64	7	1	10	469	0	0	0
0.636	3	3	64	7	5	28	2196	0	0	0
0.636	4	4	64	7	2	28	2196	0	0	0
0.637	1	1	64	8	1	12	597	0	0	0
0.637	2	2	64	8	1	10	469	0	0	0
0.637	3	3	64	8	5	28	2196	0	0	0
0.638	1	1	64	9	1	12	597	0	0	0
0.638	2	2	64	9	1	14	775	0	0	0
0.638	3	3	64	9	5	28	2196	0	0	0
0.639	1	1	64	10	1	18	967	0	0	0
0.639	2	2	64	10	1	18	967	0	0	0
0.64	1	1	65	1	1	18	967	0	0	0
0.64	2	2	65	1	1	18	967	0	0	0
0.641	1	1	65	2	1	12	597	0	0	0
0.641	2	2	65	2	1	10	469	0	0	0
0.641	3	3	65	2	5	28	2196	0	0	0
0.642	1	1	65	3	1	12	597	0	0	0
0.642	2	2	65	3	1	14	775	0	0	0
0.642	3	3	65	3	5	28	2196	0	0	0
0.643	1	1	65	4	1	12	597	0	0	0
0.643	2	2	65	4	1	14	775	0	0	0
0.643	4	4	65	4	2	28	2196	0	0	0
0.644	1	1	65	5	1	12	597	0	0	0
0.644	2	2	65	5	1	10	469	0	0	0
0.644	4	4	65	5	2	28	2196	0	0	0
0.645	1	1	65	6	1	12	597	0	0	0
0.645	2	2	65	6	1	10	469	0	0	0
0.645	4	4	65	6	2	28	2196	0	0	0
0.646	1	1	65	7	1	14	775	0	0	0
0.646	2	2	65	7	1	12	597	0	0	0
0.646	4	4	65	7	2	28	2196	0	0	0
0.647	1	1	65	8	1	14	775	0	0	0
0.647	2	2	65	8	1	12	597	0	0	0
0.647	3	3	65	8	5	28	2196	0	0	0
0.647	4	4	65	8	2	28	2196	0	0	0
0.648	1	1	65	9	1	18	967	0	0	0
0.648	2	2	65	9	1	18	967	0	0	0
0.648	3	3	65	9	5	28	2196	0	0	0
0.648	4	4	65	9	2	28	2196	0	0	0
0.649	1	1	65	10	1	18	967	0	0	0
0.649	2	2	65	10	1	18	967	0	0	0
0.649	4	4	65	10	2	28	2196	0	0	0
0.65	1	1	66	1	1	14	775	0	0	0
0.65	2	2	66	1	1	12	597	0	0	0
0.65	4	4	66	1	2	28	2196	0	0	0
0.651	1	1	66	2	1	14	775	0	0	0
0.651	2	2	66	2	1	12	597	0	0	0
0.651	3	3	66	2	5	28	2196	0	0	0
0.652	1	1	66	3	1	12	597	0	0	0
0.652	2	2	66	3	1	14	775	0	0	0
0.652	3	3	66	3	5	28	2196	0	0	0
0.653	1	1	66	4	1	12	597	0	0	0
0.653	2	2	66	4	1	14	775	0	0	0
0.653	3	3	66	4	5	28	2196	0	0	0
0.654	1	1	66	5	1	12	597	0	0	0
0.654	2	2	66	5	1	14	775	0	0	0
0.654	3	3	66	5	5	28	2196	0	0	0
0.655	1	1	66	6	1	18	967	0	0	0
0.655	2	2	66	6	1	18	967	0	0	0
0.656	1	1	66	7	1	18	967	0	0	0
0.656	2	2	66	7	1	18	967	0	0	0
0.657	1	1	66	8	1	12	597	0	0	0
0.657	2	2	66	8	1	10	469	0	0	0
0.657	3	3	66	8	5	28	2196	0	0	0
0.658	1	1	66	9	1	12	597	0	0	0
0.658	2	2	66	9	1	14	775	0	0	0
0.658	3	3	66	9	5	28	2196	0	0	0
0.659	1	1	66	10	1	12	597	0	0	0
0.659	2	2	66	10	1	14	775	0	0	0
0.659	4	4	66	10	2	28	2196	0	0	0
0.66	1	1	67	1	1	14	775	0	0	0
0.66	2	2	67	1	1	12	597	0	0	0
0.66	3	3	67	1	5	28	2196	0	0	0
0.66	4	4	67	1	2	28	2196	0	0	0
0.661	1	1	67	2	1	14	775	0	0	0
0.661	2	2	67	2	1	12	597	0	0	0
0.661	4	4	67	2	2	28	2196	0	0	0
0.662	1	1	67	3	1	14	775	0	0	0
0.662	2	2	67	3	1	12	597	0	0	0
0.662	4	4	67	3	2	28	2196	0	0	0
0.663	1	1	67	4	1	14	775	0	0	0
0.663	2	2	67	4	1	12	597	0	0	0
0.663	3	3	67	4	5	28	2196	0	0	0
0.663	4	4	67	4	2	28	2196	0	0	0
0.664	1	1	67	5	1	18	967	0	0	0
0.664	2	2	67	5	1	18	967	0	0	0
0.664	3	3	67	5	5	28	2196	0	0	0
0.664	4	4	67	5	2	28	2196	0	0	0
0.665	1	1	67	6	1	18	967	0	0	0
0.665	2	2	67	6	1	18	967	0	0	0
0.665	4	4	67	6	2	28	2196	0	0	0
0.666	1	1	67	7	1	14	775	0	0	0
0.666	2	2	67	7	1	12	597	0	0	0
0.666	4	4	67	7	2	28	2196	0	0	0
0.667	1	1	67	8	1	14	775	0	0	0
0.667	2	2	67	8	1	12	597	0	0	0
0.667	3	3	67	8	5	28	2196	0	0	0
0.668	1	1	67	9	1	12	597	0	0	0
0.668	2	2	67	9	1	10	469	0	0	0
0.668	3	3	67	9	5	28	2196	0	0	0
0.669	1	1	67	10	1	12	597	0	0	0
0.669	2	2	67	10	1	10	469	0	0	0
0.669	3	3	67	10	5	28	2196	0	0	0
0.67	1	1	68	1	1	12	597	0	0	0
0.67	2	2	68	1	1	14	775	0	0	0
0.67	3	3	68	1	5	28	2196	0	0	0
0.671	1	1	68	2	1	18	967	0	0	0
0.671	2	2	68	2	1	18	967	0	0	0
0.672	1	1	68	3	1	18	967	0	0	0
0.672	2	2	68	3	1	18	967	0	0	0
0.673	1	1	68	4	1	12	597	0	0	0
0.673	2	2	68	4	1	10	469	0	0	0
0.673	3	3	68	4	5	28	2196	0	0	0
0.674	1	1	68	5	1	12	597	0	0	0
0.674	2	2	68	5	1	14	775	0	0	0
0.674	3	3	68	5	5	28	2196	0	0	0
0.675	1	1	68	6	1	12	597	0	0	0
0.675	2	2	68	6	1	14	775	0	0	0
0.675	4	4	68	6	2	28	2196	0	0	0
0.676	1	1	68	7	1	14	775	0	0	0
0.676	2	2	68	7	1	12	597	0	0	0
0.676	4	4	68	7	2	28	2196	0	0	0
0.677	1	1	68	8	1	14	775	0	0	0
0.677	2	2	68	8	1	12	597	0	0	0
0.677	3	3	68	8	5	28	2196	0	0	0
0.677	4	4	68	8	2	28	2196	0	0	0
0.678	1	1	68	9	1	14	775	0	0	0
0.678	2	2	68	9	1	12	597	0	0	0
0.678	4	4	68	9	2	28	2196	0	0	0
0.679	1	1	68	10	1	14	775	0	0	0
0.679	2	2	68	10	1	12	597	0	0	0
0.679	3	3	68	10	5	28	2196	0	0	0
0.679	4	4	68	10	2	28	2196	0	0	0
0.68	1	1	69	1	1	18	967	0	0	0
0.68	2	2	69	1	1	18	967	0	0	0
0.68	3	3	69	1	5	28	2196	0	0	0
0.68	4	4	69	1	2	28	2196	0	0	0
0.681	1	1	69	2	1	18	967	0	0	0
0.681	2	2	69	2	1	18	967	0	0	0
0.681	4	4	69	2	2	28	2196	0	0	0
0.682	1	1	69	3	1	14	775	0	0	0
0.682	2	2	69	3	1	12	597	0	0	0
0.682	4	4	69	3	2	28	2196	0	0	0
0.683	1	1	69	4	1	14	775	0	0	0
0.683	2	2	69	4	1	12	597	0	0	0
0.683	3	3	69	4	5	28	2196	0	0	0
0.684	1	1	69	5	1	12	597	0	0	0
0.684	2	2	69	5	1	14	775	0	0	0
0.684	3	3	69	5	5	28	2196	0	0	0
0.684	4	4	69	5	2	28	2196	0	0	0
0.685	1	1	69	6	1	12	597	0	0	0
0.685	2	2	69	6	1	14	775	0	0	0
0.686	1	1	69	7	1	12	597	0	0	0
0.686	2	2	69	7	1	14	775	0	0	0
0.687	1	1	69	8	1	18	967	0	0	0
0.687	2	2	69	8	1	18	967	0	0	0
0.688	1	1	69	9	1	18	967	0	0	0
0.688	2	2	69	9	1	18	967	0	0	0
0.689	1	1	69	10	1	12	597	0	0	0
0.689	2	2	69	10	1	10	469	0	0	0
0.689	3	3	69	10	5	28	2196	0	0	0
0.69	1	1	70	1	1	12	597	0	0	0
0.69	2	2	70	1	1	14	775	0	0	0
0.69	3	3	70	1	5	28	2196	0	0	0
0.691	1	1	70	2	1	12	597	0	0	0
0.691	2	2	70	2	1	14	775	0	0	0
0.691	4	4	70	2	2	28	2196	0	0	0
0.692	1	1	70	3	1	12	597	0	0	0
0.692	2	2	70	3	1	10	469	0	0	0
0.692	4	4	70	3	2	28	2196	0	0	0
0.693	1	1	70	4	1	12	597	0	0	0
0.693	2	2	70	4	1	10	469	0	0	0
0.693	3	3	70	4	5	28	2196	0	0	0
0.693	4	4	70	4	2	28	2196	0	0	0
0.694	1	1	70	5	1	18	967	0	0	0
0.694	2	2	70	5	1	18	967	0	0	0
0.694	3	3	70	5	5	28	2196	0	0	0
0.694	4	4	70	5	2	28	2196	0	0	0
0.695	1	1	70	6	1	18	967	0	0	0
0.695	2	2	70	6	1	18	967	0	0	0
0.695	3	3	70	6	5	28	2196	0	0	0
0.695	4	4	70	6	2	28	2196	0	0	0
0.696	1	1	70	7	1	18	967	0	0	0
0.696	2	2	70	7	1	18	967	0	0	0
0.696	3	3	70	7	5	28	2196	0	0	0
0.696	4	4	70	7	2	28	2196	0	0	0
0.697	1	1	70	8	1	18	967	0	0	0
0.697	2	2	70	8	1	18	967	0	0	0
0.697	4	4	70	8	2	28	2196	0	0	0
0.698	1	1	70	9	1	14	775	0	0	0
0.698	2	2	70	9	1	12	597	0	0	0
0.698	4	4	70	9	2	28	2196	0	0	0
0.699	1	1	70	10	1	14	775	0	0	0
0.699	2	2	70	10	1	12	597	0	0	0
0.699	3	3	70	10	5	28	2196	0	0	0
0.7	1	1	71	1	1	12	597	0	0	0
0.7	2	2	71	1	1	14	775	0	0	0
0.7	3	3	71	1	5	28	2196	0	0	0
0.701	1	1	71	2	1	18	967	0	0	0
0.701	2	2	71	2	1	18	967	0	0	0
0.701	4	4	71	2	2	28	2196	0	0	0
0.702	1	1	71	3	1	18	967	0	0	0
0.702	2	2	71	3	1	18	967	0	0	0
0.703	1	1	71	4	1	18	967	0	0	0
0.703	2	2	71	4	1	18	967	0	0	0
0.704	1	1	71	5	1	18	967	0	0	0
0.704	2	2	71	5	1	18	967	0	0	0
0.705	1	1	71	6	1	12	597	0	0	0
0.705	2	2	71	6	1	10	469	0	0	0
0.705	3	3	71	6	5	28	2196	0	0	0
0.706	1	1	71	7	1	12	597	0	0	0
0.706	2	2	71	7	1	14	775	0	0	0
0.706	3	3	71	7	5	28	2196	0	0	0
0.707	1	1	71	8	1	12	597	0	0	0
0.707	2	2	71	8	1	14	775	0	0	0
0.707	4	4	71	8	2	28	2196	0	0	0
0.708	1	1	71	9	1	14	775	0	0	0
0.708	2	2	71	9	1	12	597	0	0	0
0.708	4	4	71	9	2	28	2196	0	0	0
0.709	1	1	71	10	1	14	775	0	0	0
0.709	2	2	71	10	1	12	597	0	0	0
0.709	3	3	71	10	5	28	2196	0	0	0
0.71	1	1	72	1	1	18	967	0	0	0
0.71	2	2	72	1	1	18	967	0	0	0
0.71	3	3	72	1	5	28	2196	0	0	0
0.711	1	1	72	2	1	18	967	0	0	0
0.711	2	2	72	2	1	18	967	0	0	0
0.711	3	3	72	2	5	28	2196	0	0	0
0.711	4	4	72	2	2	28	2196	0	0	0
0.712	1	1	72	3	1	18	967	0	0	0
0.712	2	2	72	3	1	18	967	0	0	0
0.712	3	3	72	3	5	28	2196	0	0	0
0.712	4	4	72	3	2	28	2196	0	0	0
0.713	1	1	72	4	1	18	967	0	0	0
0.713	2	2	72	4	1	18	967	0	0	0
0.713	4	4	72	4	2	28	2196	0	0	0
0.714	1	1	72	5	1	14	775	0	0	0
0.714	2	2	72	5	1	12	597	0	0	0
0.714	4	4	72	5	2	28	2196	0	0	0
0.715	1	1	72	6	1	14	775	0	0	0
0.715	2	2	72	6	1	12	597	0	0	0
0.715	3	3	72	6	5	28	2196	0	0	0
0.716	1	1	72	7	1	12	597	0	0	0
0.716	2	2	72	7	1	14	775	0	0	0
0.716	3	3	72	7	5	28	2196	0	0	0
0.717	1	1	72	8	1	18	967	0	0	0
0.717	2	2	72	8	1	18	967	0	0	0
0.717	4	4	72	8	2	28	2196	0	0	0
0.718	1	1	72	9	1	18	967	0	0	0
0.718	2	2	72	9	1	18	967	0	0	0
0.718	4	4	72	9	2	28	2196	0	0	0
0.719	1	1	72	10	1	18	967	0	0	0
0.719	2	2	72	10	1	18	967	0	0	0
0.72	1	1	73	1	1	18	967	0	0	0
0.72	2	2	73	1	1	18	967	0	0	0
0.721	1	1	73	2	1	12	597	0	0	0
0.721	2	2	73	2	1	10	469	0	0	0
0.721	3	3	73	2	5	28	2196	0	0	0
0.722	1	1	73	3	1	12	597	0	0	0
0.722	2	2	73	3	1	14	775	0	0	0
0.722	3	3	73	3	5	28	2196	0	0	0
0.723	1	1	73	4	1	12	597	0	0	0
0.723	2	2	73	4	1	14	775	0	0	0
0.723	4	4	73	4	2	28	2196	0	0	0
0.724	1	1	73	5	1	14	775	0	0	0
0.724	2	2	73	5	1	12	597	0	0	0
0.724	4	4	73	5	2	28	2196	0	0	0
0.725	1	1	73	6	1	14	775	0	0	0
0.725	2	2	73	6	1	12	597	0	0	0
0.725	3	3	73	6	5	28	2196	0	0	0
0.726	1	1	73	7	1	12	597	0	0	0
0.726	2	2	73	7	1	14	775	0	0	0
0.726	3	3	73	7	5	28	2196	0	0	0
0.727	1	1	73	8	1	12	597	0	0	0
0.727	2	2	73	8	1	14	775	0	0	0
0.727	3	3	73	8	5	28	2196	0	0	0
0.727	4	4	73	8	2	28	2196	0	0	0
0.728	1	1	73	9	1	18	967	0	0	0
0.728	2	2	73	9	1	18	967	0	0	0
0.728	3	3	73	9	5	28	2196	0	0	0
0.728	4	4	73	9	2	28	2196	0	0	0
0.729	1	1	73	10	1	18	967	0	0	0
0.729	2	2	73	10	1	18	967	0	0	0
0.729	4	4	73	10	2	28	2196	0	0	0
0.73	1	1	74	1	1	14	775	0	0	0
0.73	2	2	74	1	1	12	597	0	0	0
0.73	4	4	74	1	2	28	2196	0	0	0
0.731	1	1	74	2	1	14	775	0	0	0
0.731	2	2	74	2	1	12	597	0	0	0
0.731	3	3	74	2	5	28	2196	0	0	0
0.732	1	1	74	3	1	12	597	0	0	0
0.732	2	2	74	3	1	14	775	0	0	0
0.732	3	3	74	3	5	28	2196	0	0	0
0.733	1	1	74	4	1	12	597	0	0	0
0.733	2	2	74	4	1	14	775	0	0	0
0.733	4	4	74	4	2	28	2196	0	0	0
0.734	1	1	74	5	1	14	775	0	0	0
0.734	2	2	74	5	1	14	775	0	0	0
0.734	4	4	74	5	2	28	2196	0	0	0
0.735	1	1	74	6	1	18	967	0	0	0
0.735	2	2	74	6	1	18	967	0	0	0
0.736	1	1	74	7	1	18	967	0	0	0
0.736	2	2	74	7	1	18	967	0	0	0
0.737	1	1	74	8	1	12	597	0	0	0
0.737	2	2	74	8	1	10	469	0	0	0
0.737	3	3	74	8	5	28	2196	0	0	0
0.738	1	1	74	9	1	12	597	0	0	0
0.738	2	2	74	9	1	14	775	0	0	0
0.738	3	3	74	9	5	28	2196	0	0	0
0.739	1	1	74	10	1	12	597	0	0	0
0.739	2	2	74	10	1	14	775	0	0	0
0.739	4	4	74	10	2	28	2196	0	0	0
0.74	1	1	75	1	1	14	775	0	0	0
0.74	2	2	75	1	1	12	597	0	0	0
0.74	4	4	75	1	2	28	2196	0	0	0
0.741	1	1	75	2	1	14	775	0	0	0
0.741	2	2	75	2	1	12	597	0	0	0
0.741	3	3	75	2	5	28	2196	0	0	0
0.742	1	1	75	3	1	12	597	0	0	0
0.742	2	2	75	3	1	14	775	0	0	0
0.742	3	3	75	3	5	28	2196	0	0	0
0.743	1	1	75	4	1	12	597	0	0	0
0.743	2	2	75	4	1	14	775	0	0	0
0.743	3	3	75	4	5	28	2196	0	0	0
0.743	4	4	75	4	2	28	2196	0	0	0
0.744	1	1	75	5	1	18	967	0	0	0
0.744	2	2	75	5	1	18	967	0	0	0
0.744	3	3	75	5	5	28	2196	0	0	0
0.744	4	4	75	5	2	28	2196	0	0	0
0.745	1	1	75	6	1	18	967	0	0	0
0.745	2	2	75	6	1	18	967	0	0	0
0.745	4	4	75	6	2	28	2196	0	0	0
0.746	1	1	75	7	1	14	775	0	0	0
0.746	2	2	75	7	1	12	597	0	0	0
0.746	4	4	75	7	2	28	2196	0	0	0
0.747	1	1	75	8	1	14	775	0	0	0
0.747	2	2	75	8	1	12	597	0	0	0
0.747	3	3	75	8	5	28	2196	0	0	0
0.748	1	1	75	9	1	12	597	0	0	0
0.748	2	2	75	9	1	14	775	0	0	0
0.748	3	3	75	9	5	28	2196	0	0	0
0.749	1	1	75	10	1	12	597	0	0	0
0.749	2	2	75	10	1	14	775	0	0	0
0.749	4	4	75	10	2	28	2196	0	0	0
0.75	1	1	76	1	1	14	775	0	0	0
0.75	2	2	76	1	1	14	775	0	0	0
0.75	4	4	76	1	2	28	2196	0	0	0
0.751	1	1	76	2	1	18	967	0	0	0
0.751	2	2	76	2	1	18	967	0	0	0
0.752	1	1	76	3	1	18	967	0	0	0
0.752	2	2	76	3	1	18	967	0	0	0
0.753	1	1	76	4	1	12	597	0	0	0
0.753	2	2	76	4	1	10	469	0	0	0
0.753	3	3	76	4	5	28	2196	0	0	0
0.754	1	1	76	5	1	12	597	0	0	0
0.754	2	2	76	5	1	14	775	0	0	0
0.754	3	3	76	5	5	28	2196	0	0	0
0.755	1	1	76	6	1	12	597	0	0	0
0.755	2	2	76	6	1	14	775	0	0	0
0.755	4	4	76	6	2	28	2196	0	0	0
0.756	1	1	76	7	1	14	775	0	0	0
0.756	2	2	76	7	1	12	597	0	0	0
0.756	4	4	76	7	2	28	2196	0	0	0
0.757	1	1	76	8	1	14	775	0	0	0
0.757	2	2	76	8	1	12	597	0	0	0
0.757	3	3	76	8	5	28	2196	0	0	0
0.758	1	1	76	9	1	12	597	0	0	0
0.758	2	2	76	9	1	14	775	0	0	0
0.758	3	3	76	9	5	28	2196	0	0	0
0.759	1	1	76	10	1	12	597	0	0	0
0.759	2	2	76	10	1	14	775	0	0	0
0.759	3	3	76	10	5	28	2196	0	0	0
0.759	4	4	76	10	2	28	2196	0	0	0
0.76	1	1	77	1	1	18	967	0	0	0
0.76	2	2	77	1	1	18	967	0	0	0
0.76	3	3	77	1	5	28	2196	0	0	0
0.76	4	4	77	1	2	28	2196	0	0	0
0.761	1	1	77	2	1	18	967	0	0	0
0.761	2	2	77	2	1	18	967	0	0	0
0.761	4	4	77	2	2	28	2196	0	0	0
0.762	1	1	77	3	1	14	775	0	0	0
0.762	2	2	77	3	1	12	597	0	0	0
0.762	4	4	77	3	2	28	2196	0	0	0
0.763	1	1	77	4	1	14	775	0	0	0
0.763	2	2	77	4	1	12	597	0	0	0
0.763	3	3	77	4	5	28	2196	0	0	0
0.763	4	4	77	4	2	28	2196	0	0	0
0.764	1	1	77	5	1	12	597	0	0	0
0.764	2	2	77	5	1	14	775	0	0	0
0.764	3	3	77	5	5	28	2196	0	0	0
0.765	1	1	77	6	1	12	597	0	0	0
0.765	2	2	77	6	1	14	775	0	0	0
0.765	4	4	77	6	2	28	2196	0	0	0
0.766	1	1	77	7	1	14	775	0	0	0
0.766	2	2	77	7	1	14	775	0	0	0
0.766	4	4	77	7	2	28	2196	0	0	0
0.767	1	1	77	8	1	18	967	0	0	0
0.767	2	2	77	8	1	18	967	0	0	0
0.768	1	1	77	9	1	18	967	0	0	0
0.768	2	2	77	9	1	18	967	0	0	0
0.769	1	1	77	10	1	12	597	0	0	0
0.769	2	2	77	10	1	10	469	0	0	0
0.769	3	3	77	10	5	28	2196	0	0	0
0.77	1	1	78	1	1	14	775	0	0	0
0.77	2	2	78	1	1	14	775	0	0	0
0.77	3	3	78	1	5	28	2196	0	0	0
0.771	1	1	78	2	1	12	597	0	0	0
0.771	2	2	78	2	1	14	775	0	0	0
0.772	1	1	78	3	1	14	775	0	0	0
0.772	2	2	78	3	1	12	597	0	0	0
0.773	1	1	78	4	1	14	775	0	0	0
0.773	2	2	78	4	1	12	597	0	0	0
0.773	3	3	78	4	5	28	2196	0	0	0
0.774	1	1	78	5	1	12	597	0	0	0
0.774	2	2	78	5	1	14	775	0	0	0
0.774	3	3	78	5	5	28	2196	0	0	0
0.775	1	1	78	6	1	12	597	0	0	0
0.775	2	2	78	6	1	14	775	0	0	0
0.775	3	3	78	6	5	28	2196	0	0	0
0.775	4	4	78	6	2	28	2196	0	0	0
0.776	1	1	78	7	1	18	967	0	0	0
0.776	2	2	78	7	1	18	967	0	0	0
0.776	3	3	78	7	5	28	2196	0	0	0
0.776	4	4	78	7	2	28	2196	0	0	0
0.777	1	1	78	8	1	18	967	0	0	0
0.777	2	2	78	8	1	18	967	0	0	0
0.777	4	4	78	8	2	28	2196	0	0	0
0.778	1	1	78	9	1	14	775	0	0	0
0.778	2	2	78	9	1	12	597	0	0	0
0.778	4	4	78	9	2	28	2196	0	0	0
0.779	1	1	78	10	1	14	775	0	0	0
0.779	2	2	78	10	1	12	597	0	0	0
0.779	3	3	78	10	5	28	2196	0	0	0
0.779	4	4	78	10	2	28	2196	0	0	0
0.78	1	1	79	1	1	18	967	0	0	0
0.78	2	2	79	1	1	18	967	0	0	0
0.78	3	3	79	1	5	28	2196	0	0	0
0.78	4	4	79	1	2	28	2196	0	0	0
0.781	1	1	79	2	1	18	967	0	0	0
0.781	2	2	79	2	1	18	967	0	0	0
0.781	4	4	79	2	2	28	2196	0	0	0
0.782	1	1	79	3	1	14	775	0	0	0
0.782	2	2	79	3	1	14	775	0	0	0
0.782	4	4	79	3	2	28	2196	0	0	0
0.783	1	1	79	4	1	18	967	0	0	0
0.783	2	2	79	4	1	18	967	0	0	0
0.784	1	1	79	5	1	18	967	0	0	0
0.784	2	2	79	5	1	18	967	0	0	0
0.785	1	1	79	6	1	12	597	0	0	0
0.785	2	2	79	6	1	10	469	0	0	0
0.785	3	3	79	6	5	28	2196	0	0	0
0.786	1	1	79	7	1	12	597	0	0	0
0.786	2	2	79	7	1	14	775	0	0	0
0.786	3	3	79	7	5	28	2196	0	0	0
0.787	1	1	79	8	1	18	967	0	0	0
0.787	2	2	79	8	1	18	967	0	0	0
0.788	1	1	79	9	1	18	967	0	0	0
0.788	2	2	79	9	1	18	967	0	0	0
0.789	1	1	79	10	1	12	597	0	0	0
0.789	2	2	79	10	1	10	469	0	0	0
0.789	3	3	79	10	5	28	2196	0	0	0
0.79	1	1	80	1	1	12	597	0	0	0
0.79	2	2	80	1	1	14	775	0	0	0
0.79	3	3	80	1	5	28	2196	0	0	0
0.791	1	1	80	2	1	12	597	0	0	0
0.791	2	2	80	2	1	14	775	0	0	0
0.791	3	3	80	2	5	28	2196	0	0	0
0.791	4	4	80	2	2	28	2196	0	0	0
0.792	1	1	80	3	1	18	967	0	0	0
0.792	2	2	80	3	1	18	967	0	0	0
0.792	3	3	80	3	5	28	2196	0	0	0
0.792	4	4	80	3	2	28	2196	0	0	0
0.793	1	1	80	4	1	18	967	0	0	0
0.793	2	2	80	4	1	18	967	0	0	0
0.793	4	4	80	4	2	28	2196	0	0	0
0.794	1	1	80	5	1	14	775	0	0	0
0.794	2	2	80	5	1	12	597	0	0	0
0.794	4	4	80	5	2	28	2196	0	0	0
0.795	1	1	80	6	1	14	775	0	0	0
0.795	2	2	80	6	1	12	597	0	0	0
0.795	3	3	80	6	5	28	2196	0	0	0
0.795	4	4	80	6	2	28	2196	0	0	0
0.796	1	1	80	7	1	18	967	0	0	0
0.796	2	2	80	7	1	18	967	0	0	0
0.796	3	3	80	7	5	28	2196	0	0	0
0.796	4	4	80	7	2	28	2196	0	0	0
0.797	1	1	80	8	1	18	967	0	0	0
0.797	2	2	80	8	1	18	967	0	0	0
0.797	4	4	80	8	2	28	2196	0	0	0
0.798	1	1	80	9	1	14	775	0	0	0
0.798	2	2	80	9	1	14	775	0	0	0
0.798	4	4	80	9	2	28	2196	0	0	0
0.799	1	1	80	10	1	18	967	0	0	0
0.799	2	2	80	10	1	18	967	0	0	0
0.8	1	1	81	1	1	18	967	0	0	0
0.8	2	2	81	1	1	18	967	0	0	0
0.801	1	1	81	2	1	12	597	0	0	0
0.801	2	2	81	2	1	10	469	0	0	0
0.801	3	3	81	2	5	28	2196	0	0	0
0.802	1	1	81	3	1	12	597	0	0	0
0.802	2	2	81	3	1	14	775	0	0	0
0.802	3	3	81	3	5	28	2196	0	0	0
0.803	1	1	81	4	1	18	967	0	0	0
0.803	2	2	81	4	1	18	967	0	0	0
0.804	1	1	81	5	1	18	967	0	0	0
0.804	2	2	81	5	1	18	967	0	0	0
0.805	1	1	81	6	1	12	597	0	0	0
0.805	2	2	81	6	1	10	469	0	0	0
0.805	3	3	81	6	5	28	2196	0	0	0
0.806	1	1	81	7	1	12	597	0	0	0
0.806	2	2	81	7	1	14	775	0	0	0
0.806	3	3	81	7	5	28	2196	0	0	0
0.807	1	1	81	8	1	12	597	0	0	0
0.807	2	2	81	8	1	14	775	0	0	0
0.807	3	3	81	8	5	28	2196	0	0	0
0.807	4	4	81	8	2	28	2196	0	0	0
0.808	1	1	81	9	1	18	967	0	0	0
0.808	2	2	81	9	1	18	967	0	0	0
0.808	3	3	81	9	5	28	2196	0	0	0
0.808	4	4	81	9	2	28	2196	0	0	0
0.809	1	1	81	10	1	18	967	0	0	0
0.809	2	2	81	10	1	18	967	0	0	0
0.809	4	4	81	10	2	28	2196	0	0	0
0.81	1	1	82	1	1	14	775	0	0	0
0.81	2	2	82	1	1	12	597	0	0	0
0.81	4	4	82	1	2	28	2196	0	0	0
0.811	1	1	82	2	1	14	775	0	0	0
0.811	2	2	82	2	1	12	597	0	0	0
0.811	3	3	82	2	5	28	2196	0	0	0
0.811	4	4	82	2	2	28	2196	0	0	0
0.812	1	1	82	3	1	18	967	0	0	0
0.812	2	2	82	3	1	18	967	0	0	0
0.812	3	3	82	3	5	28	2196	0	0	0
0.812	4	4	82	3	2	28	2196	0	0	0
0.813	1	1	82	4	1	18	967	0	0	0
0.813	2	2	82	4	1	18	967	0	0	0
0.813	4	4	82	4	2	28	2196	0	0	0
0.814	1	1	82	5	1	14	775	0	0	0
0.814	2	2	82	5	1	14	775	0	0	0
0.814	4	4	82	5	2	28	2196	0	0	0
0.815	1	1	82	6	1	18	967	0	0	0
0.815	2	2	82	6	1	18	967	0	0	0
0.816	1	1	82	7	1	18	967	0	0	0
0.816	2	2	82	7	1	18	967	0	0	0
0.817	1	1	82	8	1	12	597	0	0	0
0.817	2	2	82	8	1	10	469	0	0	0
0.817	3	3	82	8	5	28	2196	0	0	0
0.818	1	1	82	9	1	12	597	0	0	0
0.818	2	2	82	9	1	14	775	0	0	0
0.818	3	3	82	9	5	28	2196	0	0	0
0.819	1	1	82	10	1	18	967	0	0	0
0.819	2	2	82	10	1	18	967	0	0	0
0.82	1	1	83	1	1	18	967	0	0	0
0.82	2	2	83	1	1	18	967	0	0	0
0.821	1	1	83	2	1	12	597	0	0	0
0.821	2	2	83	2	1	10	469	0	0	0
0.821	3	3	83	2	5	28	2196	0	0	0
0.821	4	4	83	2	2	28	2196	0	0	0
0.822	1	1	83	3	1	12	597	0	0	0
0.822	2	2	83	3	1	14	775	0	0	0
0.822	3	3	83	3	5	28	2196	0	0	0
0.823	1	1	83	4	1	12	597	0	0	0
0.823	2	2	83	4	1	14	775	0	0	0
0.823	3	3	83	4	5	28	2196	0	0	0
0.823	4	4	83	4	2	28	2196	0	0	0
0.824	1	1	83	5	1	18	967	0	0	0
0.824	2	2	83	5	1	18	967	0	0	0
0.824	3	3	83	5	5	28	2196	0	0	0
0.824	4	4	83	5	2	28	2196	0	0	0
0.825	1	1	83	6	1	18	967	0	0	0
0.825	2	2	83	6	1	18	967	0	0	0
0.825	4	4	83	6	2	28	2196	0	0	0
0.826	1	1	83	7	1	14	775	0	0	0
0.826	2	2	83	7	1	12	597	0	0	0
0.826	4	4	83	7	2	28	2196	0	0	0
0.827	1	1	83	8	1	14	775	0	0	0
0.827	2	2	83	8	1	12	597	0	0	0
0.827	3	3	83	8	5	28	2196	0	0	0
0.827	4	4	83	8	2	28	2196	0	0	0
0.828	1	1	83	9	1	18	967	0	0	0
0.828	2	2	83	9	1	18	967	0	0	0
0.828	3	3	83	9	5	28	2196	0	0	0
0.828	4	4	83	9	2	28	2196	0	0	0
0.829	1	1	83	10	1	18	967	0	0	0
0.829	2	2	83	10	1	18	967	0	0	0
0.83	1	1	84	1	1	14	775	0	0	0
0.83	2	2	84	1	1	14	775	0	0	0
0.83	3	3	84	1	5	28	2196	0	0	0
0.831	1	1	84	2	1	18	967	0	0	0
0.831	2	2	84	2	1	18	967	0	0	0
0.832	1	1	84	3	1	18	967	0	0	0
0.832	2	2	84	3	1	18	967	0	0	0
0.833	1	1	84	4	1	12	597	0	0	0
0.833	2	2	84	4	1	10	469	0	0	0
0.833	3	3	84	4	5	28	2196	0	0	0
0.834	1	1	84	5	1	12	597	0	0	0
0.834	2	2	84	5	1	14	775	0	0	0
0.834	3	3	84	5	5	28	2196	0	0	0
0.835	1	1	84	6	1	18	967	0	0	0
0.835	2	2	84	6	1	18	967	0	0	0
0.836	1	1	84	7	1	12	597	0	0	0
0.836	2	2	84	7	1	10	469	0	0	0
0.837	1	1	84	8	1	12	597	0	0	0
0.837	2	2	84	8	1	10	469	0	0	0
0.837	3	3	84	8	5	28	2196	0	0	0
0.837	4	4	84	8	2	28	2196	0	0	0
0.838	1	1	84	9	1	14	775	0	0	0
0.838	2	2	84	9	1	12	597	0	0	0
0.838	3	3	84	9	5	28	2196	0	0	0
0.838	4	4	84	9	2	28	2196	0	0	0
0.839	1	1	84	10	1	14	775	0	0	0
0.839	2	2	84	10	1	12	597	0	0	0
0.839	3	3	84	10	5	28	2196	0	0	0
0.839	4	4	84	10	2	28	2196	0	0	0
0.84	1	1	85	1	1	18	967	0	0	0
0.84	2	2	85	1	1	18	967	0	0	0
0.84	3	3	85	1	5	28	2196	0	0	0
0.84	4	4	85	1	2	28	2196	0	0	0
0.841	1	1	85	2	1	18	967	0	0	0
0.841	2	2	85	2	1	18	967	0	0	0
0.841	4	4	85	2	2	28	2196	0	0	0
0.842	1	1	85	3	1	14	775	0	0	0
0.842	2	2	85	3	1	12	597	0	0	0
0.842	4	4	85	3	2	28	2196	0	0	0
0.843	1	1	85	4	1	14	775	0	0	0
0.843	2	2	85	4	1	12	597	0	0	0
0.843	3	3	85	4	5	28	2196	0	0	0
0.843	4	4	85	4	2	28	2196	0	0	0
0.844	1	1	85	5	1	18	967	0	0	0
0.844	2	2	85	5	1	18	967	0	0	0
0.844	3	3	85	5	5	28	2196	0	0	0
0.844	4	4	85	5	2	28	2196	0	0	0
0.845	1	1	85	6	1	18	967	0	0	0
0.845	2	2	85	6	1	18	967	0	0	0
0.845	3	3	85	6	5	28	2196	0	0	0
0.846	1	1	85	7	1	12	597	0	0	0
0.846	2	2	85	7	1	10	469	0	0	0
0.846	4	4	85	7	2	28	2196	0	0	0
0.847	1	1	85	8	1	18	967	0	0	0
0.847	2	2	85	8	1	18	967	0	0	0
0.847	4	4	85	8	2	28	2196	0	0	0
0.848	1	1	85	9	1	18	967	0	0	0
0.848	2	2	85	9	1	18	967	0	0	0
0.849	1	1	85	10	1	12	597	0	0	0
0.849	2	2	85	10	1	10	469	0	0	0
0.849	3	3	85	10	5	28	2196	0	0	0
0.849	4	4	85	10	2	28	2196	0	0	0
0.85	1	1	86	1	1	12	597	0	0	0
0.85	2	2	86	1	1	14	775	0	0	0
0.85	3	3	86	1	5	28	2196	0	0	0
0.851	1	1	86	2	1	18	967	0	0	0
0.851	2	2	86	2	1	18	967	0	0	0
0.852	1	1	86	3	1	18	967	0	0	0
0.852	2	2	86	3	1	18	967	0	0	0
0.853	1	1	86	4	1	12	597	0	0	0
0.853	2	2	86	4	1	10	469	0	0	0
0.853	4	4	86	4	2	28	2196	0	0	0
0.854	1	1	86	5	1	12	597	0	0	0
0.854	2	2	86	5	1	14	775	0	0	0
0.854	4	4	86	5	2	28	2196	0	0	0
0.855	1	1	86	6	1	12	597	0	0	0
0.855	2	2	86	6	1	14	775	0	0	0
0.855	3	3	86	6	5	28	2196	0	0	0
0.856	1	1	86	7	1	18	967	0	0	0
0.856	2	2	86	7	1	18	967	0	0	0
0.856	3	3	86	7	5	28	2196	0	0	0
0.857	1	1	86	8	1	18	967	0	0	0
0.857	2	2	86	8	1	18	967	0	0	0
0.858	1	1	86	9	1	14	775	0	0	0
0.858	2	2	86	9	1	12	597	0	0	0
0.859	1	1	86	10	1	14	775	0	0	0
0.859	2	2	86	10	1	12	597	0	0	0
0.859	3	3	86	10	5	28	2196	0	0	0
0.859	4	4	86	10	2	28	2196	0	0	0
0.86	1	1	87	1	1	18	967	0	0	0
0.86	2	2	87	1	1	18	967	0	0	0
0.86	3	3	87	1	5	28	2196	0	0	0
0.86	4	4	87	1	2	28	2196	0	0	0
0.861	1	1	87	2	1	18	967	0	0	0
0.861	2	2	87	2	1	18	967	0	0	0
0.861	3	3	87	2	5	28	2196	0	0	0
0.861	4	4	87	2	2	28	2196	0	0	0
0.862	1	1	87	3	1	12	597	0	0	0
0.862	2	2	87	3	1	14	775	0	0	0
0.862	3	3	87	3	5	28	2196	0	0	0
0.863	1	1	87	4	1	18	967	0	0	0
0.863	2	2	87	4	1	18	967	0	0	0
0.863	4	4	87	4	2	28	2196	0	0	0
0.864	1	1	87	5	1	14	775	0	0	0
0.864	2	2	87	5	1	12	597	0	0	0
0.864	4	4	87	5	2	28	2196	0	0	0
0.865	1	1	87	6	1	14	775	0	0	0
0.865	2	2	87	6	1	12	597	0	0	0
0.865	3	3	87	6	5	28	2196	0	0	0
0.865	4	4	87	6	2	28	2196	0	0	0
0.866	1	1	87	7	1	18	967	0	0	0
0.866	2	2	87	7	1	18	967	0	0	0
0.866	3	3	87	7	5	28	2196	0	0	0
0.866	4	4	87	7	2	28	2196	0	0	0
0.867	1	1	87	8	1	18	967	0	0	0
0.867	2	2	87	8	1	18	967	0	0	0
0.868	1	1	87	9	1	18	967	0	0	0
0.868	2	2	87	9	1	18	967	0	0	0
0.869	1	1	87	10	1	12	597	0	0	0
0.869	2	2	87	10	1	10	469	0	0	0
0.87	1	1	88	1	1	14	775	0	0	0
0.87	2	2	88	1	1	12	597	0	0	0
0.871	1	1	88	2	1	14	775	0	0	0
0.871	2	2	88	2	1	12	597	0	0	0
0.871	3	3	88	2	5	28	2196	0	0	0
0.872	1	1	88	3	1	12	597	0	0	0
0.872	2	2	88	3	1	14	775	0	0	0
0.872	3	3	88	3	5	28	2196	0	0	0
0.873	1	1	88	4	1	18	967	0	0	0
0.873	2	2	88	4	1	18	967	0	0	0
0.874	1	1	88	5	1	12	597	0	0	0
0.874	2	2	88	5	1	10	469	0	0	0
0.875	1	1	88	6	1	12	597	0	0	0
0.875	2	2	88	6	1	10	469	0	0	0
0.875	3	3	88	6	5	28	2196	0	0	0
0.875	4	4	88	6	2	28	2196	0	0	0
0.876	1	1	88	7	1	18	967	0	0	0
0.876	2	2	88	7	1	18	967	0	0	0
0.876	3	3	88	7	5	28	2196	0	0	0
0.876	4	4	88	7	2	28	2196	0	0	0
0.877	1	1	88	8	1	18	967	0	0	0
0.877	2	2	88	8	1	18	967	0	0	0
0.877	3	3	88	8	5	28	2196	0	0	0
0.877	4	4	88	8	2	28	2196	0	0	0
0.878	1	1	88	9	1	18	967	0	0	0
0.878	2	2	88	9	1	18	967	0	0	0
0.878	3	3	88	9	5	28	2196	0	0	0
0.878	4	4	88	9	2	28	2196	0	0	0
0.879	1	1	88	10	1	18	967	0	0	0
0.879	2	2	88	10	1	18	967	0	0	0
0.879	4	4	88	10	2	28	2196	0	0	0
0.88	1	1	89	1	1	14	775	0	0	0
0.88	2	2	89	1	1	12	597	0	0	0
0.88	4	4	89	1	2	28	2196	0	0	0
0.881	1	1	89	2	1	14	775	0	0	0
0.881	2	2	89	2	1	12	597	0	0	0
0.881	3	3	89	2	5	28	2196	0	0	0
0.881	4	4	89	2	2	28	2196	0	0	0
0.882	1	1	89	3	1	18	967	0	0	0
0.882	2	2	89	3	1	18	967	0	0	0
0.882	3	3	89	3	5	28	2196	0	0	0
0.882	4	4	89	3	2	28	2196	0	0	0
0.883	1	1	89	4	1	18	967	0	0	0
0.883	2	2	89	4	1	18	967	0	0	0
0.884	1	1	89	5	1	18	967	0	0	0
0.884	2	2	89	5	1	18	967	0	0	0
0.885	1	1	89	6	1	18	967	0	0	0
0.885	2	2	89	6	1	18	967	0	0	0
0.886	1	1	89	7	1	18	967	0	0	0
0.886	2	2	89	7	1	18	967	0	0	0
0.887	1	1	89	8	1	12	597	0	0	0
0.887	2	2	89	8	1	10	469	0	0	0
0.887	3	3	89	8	5	28	2196	0	0	0
0.888	1	1	89	9	1	12	597	0	0	0
0.888	2	2	89	9	1	14	775	0	0	0
0.888	3	3	89	9	5	28	2196	0	0	0
0.889	1	1	89	10	1	18	967	0	0	0
0.889	2	2	89	10	1	18	967	0	0	0
0.89	1	1	90	1	1	12	597	0	0	0
0.89	2	2	90	1	1	10	469	0	0	0
0.891	1	1	90	2	1	12	597	0	0	0
0.891	2	2	90	2	1	10	469	0	0	0
0.891	3	3	90	2	5	28	2196	0	0	0
0.891	4	4	90	2	2	28	2196	0	0	0
0.892	1	1	90	3	1	18	967	0	0	0
0.892	2	2	90	3	1	18	967	0	0	0
0.892	3	3	90	3	5	28	2196	0	0	0
0.892	4	4	90	3	2	28	2196	0	0	0
0.893	1	1	90	4	1	18	967	0	0	0
0.893	2	2	90	4	1	18	967	0	0	0
0.893	3	3	90	4	5	28	2196	0	0	0
0.893	4	4	90	4	2	28	2196	0	0	0
0.894	1	1	90	5	1	18	967	0	0	0
0.894	2	2	90	5	1	18	967	0	0	0
0.894	3	3	90	5	5	28	2196	0	0	0
0.894	4	4	90	5	2	28	2196	0	0	0
0.895	1	1	90	6	1	18	967	0	0	0
0.895	2	2	90	6	1	18	967	0	0	0
0.895	4	4	90	6	2	28	2196	0	0	0
0.896	1	1	90	7	1	14	775	0	0	0
0.896	2	2	90	7	1	12	597	0	0	0
0.896	4	4	90	7	2	28	2196	0	0	0
0.897	1	1	90	8	1	14	775	0	0	0
0.897	2	2	90	8	1	12	597	0	0	0
0.897	3	3	90	8	5	28	2196	0	0	0
0.897	4	4	90	8	2	28	2196	0	0	0
0.898	1	1	90	9	1	18	967	0	0	0
0.898	2	2	90	9	1	18	967	0	0	0
0.898	3	3	90	9	5	28	2196	0	0	0
0.898	4	4	90	9	2	28	2196	0	0	0
0.899	1	1	90	10	1	18	967	0	0	0
0.899	2	2	90	10	1	18	967	0	0	0
0.9	1	1	91	1	1	18	967	0	0	0
0.9	2	2	91	1	1	18	967	0	0	0
0.901	1	1	91	2	1	18	967	0	0	0
0.901	2	2	91	2	1	18	967	0	0	0
0.902	1	1	91	3	1	18	967	0	0	0
0.902	2	2	91	3	1	18	967	0	0	0
0.903	1	1	91	4	1	12	597	0	0	0
0.903	2	2	91	4	1	10	469	0	0	0
0.903	3	3	91	4	5	28	2196	0	0	0
0.904	1	1	91	5	1	12	597	0	0	0
0.904	2	2	91	5	1	14	775	0	0	0
0.904	3	3	91	5	5	28	2196	0	0	0
0.905	1	1	91	6	1	18	967	0	0	0
0.905	2	2	91	6	1	18	967	0	0	0
0.905	3	3	91	6	5	28	2196	0	0	0
0.906	1	1	91	7	1	12	597	0	0	0
0.906	2	2	91	7	1	10	469	0	0	0
0.907	1	1	91	8	1	12	597	0	0	0
0.907	2	2	91	8	1	10	469	0	0	0
0.907	3	3	91	8	5	28	2196	0	0	0
0.907	4	4	91	8	2	28	2196	0	0	0
0.908	1	1	91	9	1	18	967	0	0	0
0.908	2	2	91	9	1	18	967	0	0	0
0.908	3	3	91	9	5	28	2196	0	0	0
0.908	4	4	91	9	2	28	2196	0	0	0
0.909	1	1	91	10	1	18	967	0	0	0
0.909	2	2	91	10	1	18	967	0	0	0
0.909	3	3	91	10	5	28	2196	0	0	0
0.909	4	4	91	10	2	28	2196	0	0	0
0.91	1	1	92	1	1	18	967	0	0	0
0.91	2	2	92	1	1	18	967	0	0	0
0.91	3	3	92	1	5	28	2196	0	0	0
0.91	4	4	92	1	2	28	2196	0	0	0
0.911	1	1	92	2	1	18	967	0	0	0
0.911	2	2	92	2	1	18	967	0	0	0
0.911	4	4	92	2	2	28	2196	0	0	0
0.912	1	1	92	3	1	14	775	0	0	0
0.912	2	2	92	3	1	12	597	0	0	0
0.912	4	4	92	3	2	28	2196	0	0	0
0.913	1	1	92	4	1	14	775	0	0	0
0.913	2	2	92	4	1	12	597	0	0	0
0.913	4	4	92	4	2	28	2196	0	0	0
0.914	1	1	92	5	1	18	967	0	0	0
0.914	2	2	92	5	1	18	967	0	0	0
0.914	4	4	92	5	2	28	2196	0	0	0
0.915	1	1	92	6	1	18	967	0	0	0
0.915	2	2	92	6	1	18	967	0	0	0
0.916	1	1	92	7	1	18	967	0	0	0
0.916	2	2	92	7	1	18	967	0	0	0
0.916	3	3	92	7	5	28	2196	0	0	0
0.917	1	1	92	8	1	18	967	0	0	0
0.917	2	2	92	8	1	18	967	0	0	0
0.918	1	1	92	9	1	18	967	0	0	0
0.918	2	2	92	9	1	18	967	0	0	0
0.919	1	1	92	10	1	12	597	0	0	0
0.919	2	2	92	10	1	10	469	0	0	0
0.919	3	3	92	10	5	28	2196	0	0	0
0.92	1	1	93	1	1	12	597	0	0	0
0.92	2	2	93	1	1	14	775	0	0	0
0.92	3	3	93	1	5	28	2196	0	0	0
0.921	1	1	93	2	1	18	967	0	0	0
0.921	2	2	93	2	1	18	967	0	0	0
0.921	3	3	93	2	5	28	2196	0	0	0
0.922	1	1	93	3	1	12	597	0	0	0
0.922	2	2	93	3	1	14	775	0	0	0
0.922	3	3	93	3	5	28	2196	0	0	0
0.923	1	1	93	4	1	12	597	0	0	0
0.923	2	2	93	4	1	14	775	0	0	0
0.923	3	3	93	4	5	28	2196	0	0	0
0.923	4	4	93	4	2	28	2196	0	0	0
0.924	1	1	93	5	1	14	775	0	0	0
0.924	2	2	93	5	1	12	597	0	0	0
0.924	3	3	93	5	5	28	2196	0	0	0
0.924	4	4	93	5	2	28	2196	0	0	0
0.925	1	1	93	6	1	14	775	0	0	0
0.925	2	2	93	6	1	12	597	0	0	0
0.925	3	3	93	6	5	28	2196	0	0	0
0.925	4	4	93	6	2	28	2196	0	0	0
0.926	1	1	93	7	1	18	967	0	0	0
0.926	2	2	93	7	1	18	967	0	0	0
0.926	3	3	93	7	5	28	2196	0	0	0
0.926	4	4	93	7	2	28	2196	0	0	0
0.927	1	1	93	8	1	18	967	0	0	0
0.927	2	2	93	8	1	18	967	0	0	0
0.927	4	4	93	8	2	28	2196	0	0	0
0.928	1	1	93	9	1	14	775	0	0	0
0.928	2	2	93	9	1	12	597	0	0	0
0.928	4	4	93	9	2	28	2196	0	0	0
0.929	1	1	93	10	1	14	775	0	0	0
0.929	2	2	93	10	1	12	597	0	0	0
0.929	4	4	93	10	2	28	2196	0	0	0
0.93	1	1	94	1	1	14	775	0	0	0
0.93	2	2	94	1	1	14	775	0	0	0
0.93	4	4	94	1	2	28	2196	0	0	0
0.931	1	1	94	2	1	14	775	0	0	0
0.931	2	2	94	2	1	12	597	0	0	0
0.932	1	1	94	3	1	12	597	0	0	0
0.932	2	2	94	3	1	10	469	0	0	0
0.933	1	1	94	4	1	18	967	0	0	0
0.933	2	2	94	4	1	18	967	0	0	0
0.934	1	1	94	5	1	18	967	0	0	0
0.934	2	2	94	5	1	18	967	0	0	0
0.935	1	1	94	6	1	12	597	0	0	0
0.935	2	2	94	6	1	10	469	0	0	0
0.935	3	3	94	6	5	28	2196	0	0	0
0.936	1	1	94	7	1	12	597	0	0	0
0.936	2	2	94	7	1	14	775	0	0	0
0.936	3	3	94	7	5	28	2196	0	0	0
0.936	4	4	94	7	2	28	2196	0	0	0
0.937	1	1	94	8	1	12	597	0	0	0
0.937	2	2	94	8	1	14	775	0	0	0
0.937	3	3	94	8	5	28	2196	0	0	0
0.938	1	1	94	9	1	12	597	0	0	0
0.938	2	2	94	9	1	14	775	0	0	0
0.938	3	3	94	9	5	28	2196	0	0	0
0.939	1	1	94	10	1	12	597	0	0	0
0.939	2	2	94	10	1	14	775	0	0	0
0.939	3	3	94	10	5	28	2196	0	0	0
0.939	4	4	94	10	2	28	2196	0	0	0
0.94	1	1	95	1	1	18	967	0	0	0
0.94	2	2	95	1	1	18	967	0	0	0
0.94	3	3	95	1	5	28	2196	0	0	0
0.94	4	4	95	1	2	28	2196	0	0	0
0.941	1	1	95	2	1	18	967	0	0	0
0.941	2	2	95	2	1	18	967	0	0	0
0.941	3	3	95	2	5	28	2196	0	0	0
0.941	4	4	95	2	2	28	2196	0	0	0
0.942	1	1	95	3	1	18	967	0	0	0
0.942	2	2	95	3	1	18	967	0	0	0
0.942	3	3	95	3	5	28	2196	0	0	0
0.942	4	4	95	3	2	28	2196	0	0	0
0.943	1	1	95	4	1	18	967	0	0	0
0.943	2	2	95	4	1	14	775	0	0	0
0.943	4	4	95	4	2	28	2196	0	0	0
0.944	1	1	95	5	1	12	597	0	0	0
0.944	2	2	95	5	1	10	469	0	0	0
0.944	4	4	95	5	2	28	2196	0	0	0
0.945	1	1	95	6	1	12	597	0	0	0
0.945	2	2	95	6	1	10	469	0	0	0
0.945	4	4	95	6	2	28	2196	0	0	0
0.946	1	1	95	7	1	14	775	0	0	0
0.946	2	2	95	7	1	14	775	0	0	0
0.947	1	1	95	8	1	18	967	0	0	0
0.947	2	2	95	8	1	18	967	0	0	0
0.948	1	1	95	9	1	18	967	0	0	0
0.948	2	2	95	9	1	18	967	0	0	0
0.949	1	1	95	10	1	18	967	0	0	0
0.949	2	2	95	10	1	18	967	0	0	0
0.95	1	1	96	1	1	18	967	0	0	0
0.95	2	2	96	1	1	10	469	0	0	0
0.951	1	1	96	2	1	12	597	0	0	0
0.951	2	2	96	2	1	10	469	0	0	0
0.951	3	3	96	2	5	28	2196	0	0	0
0.952	1	1	96	3	1	12	597	0	0	0
0.952	2	2	96	3	1	14	775	0	0	0
0.952	3	3	96	3	5	28	2196	0	0	0
0.953	1	1	96	4	1	12	597	0	0	0
0.953	2	2	96	4	1	14	775	0	0	0
0.953	3	3	96	4	5	28	2196	0	0	0
0.954	1	1	96	5	1	18	967	0	0	0
0.954	2	2	96	5	1	18	967	0	0	0
0.954	3	3	96	5	5	28	2196	0	0	0
0.955	1	1	96	6	1	18	967	0	0	0
0.955	2	2	96	6	1	18	967	0	0	0
0.955	3	3	96	6	5	28	2196	0	0	0
0.955	4	4	96	6	2	28	2196	0	0	0
0.956	1	1	96	7	1	18	967	0	0	0
0.956	2	2	96	7	1	18	967	0	0	0
0.956	3	3	96	7	5	28	2196	0	0	0
0.956	4	4	96	7	2	28	2196	0	0	0
0.957	1	1	96	8	1	18	967	0	0	0
0.957	2	2	96	8	1	18	967	0	0	0
0.957	3	3	96	8	5	28	2196	0	0	0
0.957	4	4	96	8	2	28	2196	0	0	0
0.958	1	1	96	9	1	18	967	0	0	0
0.958	2	2	96	9	1	18	967	0	0	0
0.958	3	3	96	9	5	28	2196	0	0	0
0.958	4	4	96	9	2	28	2196	0	0	0
0.959	1	1	96	10	1	18	967	0	0	0
0.959	2	2	96	10	1	18	967	0	0	0
0.959	4	4	96	10	2	28	2196	0	0	0
0.96	1	1	97	1	1	14	775	0	0	0
0.96	2	2	97	1	1	12	597	0	0	0
0.96	4	4	97	1	2	28	2196	0	0	0
0.961	1	1	97	2	1	18	967	0	0	0
0.961	2	2	97	2	1	18	967	0	0	0
0.961	4	4	97	2	2	28	2196	0	0	0
0.962	1	1	97	3	1	18	967	0	0	0
0.962	2	2	97	3	1	18	967	0	0	0
0.962	4	4	97	3	2	28	2196	0	0	0
0.963	1	1	97	4	1	18	967	0	0	0
0.963	2	2	97	4	1	18	967	0	0	0
0.964	1	1	97	5	1	18	967	0	0	0
0.964	2	2	97	5	1	18	967	0	0	0
0.965	1	1	97	6	1	18	967	0	0	0
0.965	2	2	97	6	1	18	967	0	0	0
0.966	1	1	97	7	1	18	967	0	0	0
0.966	2	2	97	7	1	18	967	0	0	0
0.967	1	1	97	8	1	12	597	0	0	0
0.967	2	2	97	8	1	10	469	0	0	0
0.967	3	3	97	8	5	28	2196	0	0	0
0.968	1	1	97	9	1	12	597	0	0	0
0.968	2	2	97	9	1	14	775	0	0	0
0.968	3	3	97	9	5	28	2196	0	0	0
0.969	1	1	97	10	1	12	597	0	0	0
0.969	2	2	97	10	1	14	775	0	0	0
0.969	3	3	97	10	5	28	2196	0	0	0
0.97	1	1	98	1	1	12	597	0	0	0
0.97	2	2	98	1	1	14	775	0	0	0
0.97	3	3	98	1	5	28	2196	0	0	0
0.971	1	1	98	2	1	12	597	0	0	0
0.971	2	2	98	2	1	14	775	0	0	0
0.971	3	3	98	2	5	28	2196	0	0	0
0.971	4	4	98	2	2	28	2196	0	0	0
0.972	1	1	98	3	1	18	967	0	0	0
0.972	2	2	98	3	1	18	967	0	0	0
0.972	3	3	98	3	5	28	2196	0	0	0
0.972	4	4	98	3	2	28	2196	0	0	0
0.973	1	1	98	4	1	18	967	0	0	0
0.973	2	2	98	4	1	18	967	0	0	0
0.973	3	3	98	4	5	28	2196	0	0	0
0.973	4	4	98	4	2	28	2196	0	0	0
0.974	1	1	98	5	1	18	967	0	0	0
0.974	2	2	98	5	1	18	967	0	0	0
0.974	3	3	98	5	5	28	2196	0	0	0
0.974	4	4	98	5	2	28	2196	0	0	0
0.975	1	1	98	6	1	18	967	0	0	0
0.975	2	2	98	6	1	18	967	0	0	0
0.975	4	4	98	6	2	28	2196	0	0	0
0.976	1	1	98	7	1	14	775	0	0	0
0.976	2	2	98	7	1	12	597	0	0	0
0.976	4	4	98	7	2	28	2196	0	0	0
0.977	1	1	98	8	1	14	775	0	0	0
0.977	2	2	98	8	1	12	597	0	0	0
0.977	4	4	98	8	2	28	2196	0	0	0
0.978	1	1	98	9	1	14	775	0	0	0
0.978	2	2	98	9	1	14	775	0	0	0
0.978	4	4	98	9	2	28	2196	0	0	0
0.979	1	1	98	10	1	18	967	0	0	0
0.979	2	2	98	10	1	18	967	0	0	0
0.98	1	1	99	1	1	18	967	0	0	0
0.98	2	2	99	1	1	18	967	0	0	0
0.98	3	3	99	1	5	28	2196	0	0	0
0.981	1	1	99	2	1	18	967	0	0	0
0.981	2	2	99	2	1	18	967	0	0	0
0.982	1	1	99	3	1	18	967	0	0	0
0.982	2	2	99	3	1	18	967	0	0	0
0.983	1	1	99	4	1	12	597	0	0	0
0.983	2	2	99	4	1	10	469	0	0	0
0.983	3	3	99	4	5	28	2196	0	0	0
0.984	1	1	99	5	1	12	597	0	0	0
0.984	2	2	99	5	1	14	775	0	0	0
0.984	3	3	99	5	5	28	2196	0	0	0
0.985	1	1	99	6	1	12	597	0	0	0
0.985	2	2	99	6	1	14	775	0	0	0
0.985	3	3	99	6	5	28	2196	0	0	0
0.986	1	1	99	7	1	12	597	0	0	0
0.986	2	2	99	7	1	14	775	0	0	0
0.986	3	3	99	7	5	28	2196	0	0	0
0.987	1	1	99	8	1	12	597	0	0	0
0.987	2	2	99	8	1	14	775	0	0	0
0.987	3	3	99	8	5	28	2196	0	0	0
0.987	4	4	99	8	2	28	2196	0	0	0
0.988	1	1	99	9	1	14	775	0	0	0
0.988	2	2	99	9	1	12	597	0	0	0
0.988	3	3	99	9	5	28	2196	0	0	0
0.988	4	4	99	9	2	28	2196	0	0	0
0.989	1	1	99	10	1	14	775	0	0	0
0.989	2	2	99	10	1	12	597	0	0	0
0.989	3	3	99	10	5	28	2196	0	0	0
0.989	4	4	99	10	2	28	2196	0	0	0
0.99	1	1	100	1	1	18	967	0	0	0
0.99	2	2	100	1	1	18	967	0	0	0
0.99	4	4	100	1	2	28	2196	0	0	0
0.991	1	1	100	2	1	18	967	0	0	0
0.991	2	2	100	2	1	18	967	0	0	0
0.991	4	4	100	2	2	28	2196	0	0	0
0.992	1	1	100	3	1	14	775	0	0	0
0.992	2	2	100	3	1	12	597	0	0	0
0.992	4	4	100	3	2	28	2196	0	0	0
0.993	1	1	100	4	1	14	775	0	0	0
0.993	2	2	100	4	1	12	597	0	0	0
0.993	3	3	100	4	5	28	2196	0	0	0
0.993	4	4	100	4	2	28	2196	0	0	0
0.994	1	1	100	5	1	14	775	0	0	0
0.994	2	2	100	5	1	14	775	0	0	0
0.994	4	4	100	5	2	28	2196	0	0	0
0.995	1	1	100	6	1	14	775	0	0	0
0.995	2	2	100	6	1	12	597	0	0	0
0.995	3	3	100	6	5	28	2196	0	0	0
0.996	1	1	100	7	1	12	597	0	0	0
0.996	2	2	100	7	1	10	469	0	0	0
0.997	1	1	100	8	1	18	967	0	0	0
0.997	2	2	100	8	1	18	967	0	0	0
0.998	1	1	100	9	1	18	967	0	0	0
0.998	2	2	100	9	1	18	967	0	0	0
0.999	1	1	100	10	1	12	597	0	0	0
0.999	2	2	100	10	1	14	775	0	0	0
0.999	3	3	100	10	5	28	2196	0	0	0
